{"name":"Andre Emmanuel","collect_list(subject AS subjects)":["Philosophy","Chemistry","Geography","Physical education","Literature","Math","Biology","History","Physics"]}
{"name":"Antoine Julien","collect_list(subject AS subjects)":["Physics","Chemistry","Literature","Philosophy","Geography","Biology","History","Math"]}
{"name":"Antoine Paul","collect_list(subject AS subjects)":["Chemistry","History","Literature","Physics","Philosophy","Math","Biology","Geography","Physical education"]}
{"name":"Antoine Sylvie","collect_list(subject AS subjects)":["Philosophy","Biology","Math","Literature","History","Chemistry","Physical education","Geography","Physics","Art"]}
{"name":"Aubert Adrien","collect_list(subject AS subjects)":["Physics","Literature","Geography","Physical education","Math","Chemistry","Biology","History","Philosophy"]}
{"name":"Bailly Lucas","collect_list(subject AS subjects)":["Geography","Philosophy","Physical education","History","Biology","Literature","Music","Chemistry","Physics","Math"]}
{"name":"Barbier Nicole","collect_list(subject AS subjects)":["Physical education","Philosophy","Math","Literature","Geography","Biology","History","Chemistry","Physics"]}
{"name":"Baron Thierry","collect_list(subject AS subjects)":["Math","Literature","Philosophy","Biology","History","Physics","Geography","Chemistry"]}
{"name":"Barthelemy Dominique","collect_list(subject AS subjects)":["Chemistry","Geography","Math","History","Philosophy","Physics","Literature","Biology"]}
{"name":"Benard Romain","collect_list(subject AS subjects)":["Geography","Philosophy","Physics","Chemistry","History","Math","Biology","Literature"]}
{"name":"Benoit Nadine","collect_list(subject AS subjects)":["Math","Literature","Chemistry","History","Physics","Biology","Philosophy","Physical education"]}
{"name":"Bernard Jacqueline","collect_list(subject AS subjects)":["Philosophy","Literature","Music","Physical education","History","Math","Geography","Physics","Biology","Chemistry"]}
{"name":"Bernard Karine","collect_list(subject AS subjects)":["Math","Physical education","Chemistry","Literature","Philosophy","History","Art","Physics","Biology","Geography"]}
{"name":"Besson Michèle","collect_list(subject AS subjects)":["Physical education","Biology","Literature","Math","Physics","History","Music","Chemistry","Geography","Philosophy"]}
{"name":"Blanc Audrey","collect_list(subject AS subjects)":["Philosophy","Physics","Chemistry","Physical education","Biology","Geography","Literature","History","Math"]}
{"name":"Blanchard Claire","collect_list(subject AS subjects)":["Philosophy","Physical education","Biology","Physics","Geography","Literature","Chemistry","History","Music","Math"]}
{"name":"Boulanger Brigitte","collect_list(subject AS subjects)":["Literature","History","Geography","Philosophy","Math","Physics","Biology","Chemistry"]}
{"name":"Bourgeois Jean-Claude","collect_list(subject AS subjects)":["Philosophy","History","Chemistry","Literature","Physical education","Math","Physics","Biology","Geography"]}
{"name":"Bouvier Gérard","collect_list(subject AS subjects)":["Physics","Philosophy","Literature","Physical education","Chemistry","History","Math","Biology"]}
{"name":"Carlier Florence","collect_list(subject AS subjects)":["Geography","Biology","Math","Chemistry","History","Literature","Physics","Philosophy"]}
{"name":"Carpentier Roger","collect_list(subject AS subjects)":["Physical education","Chemistry","Math","Biology","Geography","Literature","History","Philosophy","Physics"]}
{"name":"Carre Jeremy","collect_list(subject AS subjects)":["Geography","Literature","Math","Philosophy","History","Biology","Physics","Physical education","Chemistry"]}
{"name":"Charles Florian","collect_list(subject AS subjects)":["History","Biology","Physics","Geography","Literature","Chemistry","Music","Physical education","Math","Philosophy"]}
{"name":"Charles Laetitia","collect_list(subject AS subjects)":["Geography","History","Chemistry","Philosophy","Physics","Literature","Biology","Math"]}
{"name":"Charpentier Adrien","collect_list(subject AS subjects)":["Biology","History","Literature","Philosophy","Physical education","Math","Chemistry","Physics","Geography"]}
{"name":"Chauvin Laurent","collect_list(subject AS subjects)":["History","Literature","Chemistry","Math","Philosophy","Biology","Geography","Physics"]}
{"name":"Chevallier Marie","collect_list(subject AS subjects)":["Biology","Physical education","Geography","Art","Literature","Physics","History","Philosophy","Math","Chemistry"]}
{"name":"Chevallier Paulette","collect_list(subject AS subjects)":["Physical education","Biology","Math","Music","History","Geography","Chemistry","Physics","Philosophy","Literature"]}
{"name":"Chevallier Victor","collect_list(subject AS subjects)":["Literature","Math","History","Physics","Geography","Physical education","Biology","Philosophy","Chemistry","Music"]}
{"name":"Colin Christine","collect_list(subject AS subjects)":["Math","Chemistry","Literature","Philosophy","Geography","Physics","Biology","History"]}
{"name":"Cousin Florence","collect_list(subject AS subjects)":["Philosophy","Chemistry","Literature","History","Geography","Math","Biology","Physics"]}
{"name":"Da Silva Jacques","collect_list(subject AS subjects)":["Math","Biology","Physics","History","Chemistry","Physical education","Literature","Philosophy"]}
{"name":"David Jacques","collect_list(subject AS subjects)":["History","Chemistry","Philosophy","Biology","Music","Physical education","Physics","Geography","Literature","Math"]}
{"name":"Delaunay Jerome","collect_list(subject AS subjects)":["Literature","Math","History","Chemistry","Philosophy","Physical education","Biology","Physics"]}
{"name":"Deschamps Alice","collect_list(subject AS subjects)":["Philosophy","Math","Geography","Biology","History","Chemistry","Physics","Physical education","Literature","Music"]}
{"name":"Dufour Corinne","collect_list(subject AS subjects)":["Philosophy","Physics","Geography","Biology","Math","Chemistry","Literature","History"]}
{"name":"Dufour Suzanne","collect_list(subject AS subjects)":["History","Literature","Math","Physics","Physical education","Geography","Biology","Philosophy","Chemistry"]}
{"name":"Faure Christophe","collect_list(subject AS subjects)":["Literature","Biology","Math","History","Art","Physics","Philosophy","Physical education","Geography","Chemistry"]}
{"name":"Fontaine Emile","collect_list(subject AS subjects)":["Geography","Literature","Biology","Art","Math","Physics","Philosophy","Physical education","Chemistry","History"]}
{"name":"Fournier Eliane","collect_list(subject AS subjects)":["Biology","History","Math","Philosophy","Physics","Physical education","Chemistry","Literature"]}
{"name":"Fournier Marcelle","collect_list(subject AS subjects)":["Philosophy","Math","Physics","Geography","Chemistry","History","Biology","Literature"]}
{"name":"Gaillard Stéphanie","collect_list(subject AS subjects)":["Literature","Philosophy","Math","History","Geography","Physics","Chemistry","Biology"]}
{"name":"Garnier Chloé","collect_list(subject AS subjects)":["Physics","Philosophy","Biology","Geography","Math","Art","Physical education","Literature","History","Chemistry"]}
{"name":"Gauthier Gérard","collect_list(subject AS subjects)":["Music","Chemistry","Physics","History","Literature","Math","Philosophy","Physical education","Biology","Geography"]}
{"name":"Gerard Denis","collect_list(subject AS subjects)":["Chemistry","Physics","Math","Biology","Literature","Philosophy","Physical education","History"]}
{"name":"Gerard Suzanne","collect_list(subject AS subjects)":["Literature","Math","History","Biology","Chemistry","Physics","Physical education","Philosophy"]}
{"name":"Germain Benjamin","collect_list(subject AS subjects)":["Biology","Math","Chemistry","Literature","Geography","Philosophy","History","Physics"]}
{"name":"Gillet Hervé","collect_list(subject AS subjects)":["Chemistry","Biology","Literature","Physics","Philosophy","Physical education","Geography","Math","Art","History"]}
{"name":"Gillet Mathieu","collect_list(subject AS subjects)":["Biology","Physics","Chemistry","Literature","Math","Philosophy","History","Physical education"]}
{"name":"Girard Audrey","collect_list(subject AS subjects)":["Physics","History","Biology","Music","Physical education","Math","Literature","Geography","Philosophy","Chemistry"]}
{"name":"Girard Juliette","collect_list(subject AS subjects)":["Biology","Art","Math","Philosophy","Chemistry","Physical education","History","Physics","Geography","Literature"]}
{"name":"Grondin Gabriel","collect_list(subject AS subjects)":["Physical education","Math","Biology","Geography","Physics","Chemistry","Philosophy","History","Literature"]}
{"name":"Grondin Suzanne","collect_list(subject AS subjects)":["Physics","Geography","Physical education","Philosophy","Literature","Biology","Chemistry","Math","History"]}
{"name":"Guillot Isabelle","collect_list(subject AS subjects)":["History","Geography","Literature","Art","Philosophy","Physical education","Chemistry","Physics","Math","Biology"]}
{"name":"Henry Odette","collect_list(subject AS subjects)":["Geography","History","Philosophy","Chemistry","Physics","Literature","Physical education","Math","Biology"]}
{"name":"Herve Charlotte","collect_list(subject AS subjects)":["Biology","Physical education","Philosophy","Chemistry","Math","Physics","History","Literature"]}
{"name":"Hoarau Jeannine","collect_list(subject AS subjects)":["History","Physics","Biology","Literature","Chemistry","Geography","Philosophy","Math"]}
{"name":"Hoarau Paul","collect_list(subject AS subjects)":["Chemistry","Geography","Biology","Art","Physics","Philosophy","Physical education","Math","History","Literature"]}
{"name":"Hubert Alexis","collect_list(subject AS subjects)":["Literature","History","Philosophy","Biology","Math","Physics","Chemistry","Physical education"]}
{"name":"Hubert Laurence","collect_list(subject AS subjects)":["Physical education","Chemistry","Literature","Art","Philosophy","Math","Physics","History","Biology","Geography"]}
{"name":"Hubert Pierre","collect_list(subject AS subjects)":["Philosophy","Physical education","Math","Chemistry","Biology","Literature","History","Music","Geography","Physics"]}
{"name":"Hubert Quentin","collect_list(subject AS subjects)":["Philosophy","Math","Physics","History","Geography","Chemistry","Biology","Literature"]}
{"name":"Huet Martine","collect_list(subject AS subjects)":["Chemistry","Biology","Geography","Literature","Philosophy","History","Physical education","Math","Physics"]}
{"name":"Humbert Thomas","collect_list(subject AS subjects)":["Physics","Chemistry","Math","Geography","Biology","Literature","Philosophy","History"]}
{"name":"Jacquet Bernard","collect_list(subject AS subjects)":["History","Biology","Geography","Math","Chemistry","Physics","Philosophy","Literature"]}
{"name":"Jacquet Fernand","collect_list(subject AS subjects)":["Physics","Chemistry","Literature","History","Biology","Philosophy","Math","Physical education"]}
{"name":"Jean Emilie","collect_list(subject AS subjects)":["Math","Biology","Geography","Philosophy","History","Chemistry","Music","Physical education","Literature","Physics"]}
{"name":"Joly Christine","collect_list(subject AS subjects)":["Literature","Math","Physical education","Chemistry","History","Biology","Physics","Philosophy"]}
{"name":"Joly Emmanuel","collect_list(subject AS subjects)":["Math","Physics","Biology","History","Chemistry","Philosophy","Literature","Physical education"]}
{"name":"Klein Damien","collect_list(subject AS subjects)":["Biology","History","Math","Chemistry","Physics","Philosophy","Literature","Physical education"]}
{"name":"Klein Laetitia","collect_list(subject AS subjects)":["Literature","History","Math","Physics","Philosophy","Geography","Physical education","Chemistry","Biology"]}
{"name":"Lacroix Denis","collect_list(subject AS subjects)":["Philosophy","Chemistry","Physical education","Geography","Literature","Physics","Biology","Math","History"]}
{"name":"Lambert Eliane","collect_list(subject AS subjects)":["Physical education","Chemistry","Biology","Art","Physics","Geography","Math","History","Philosophy","Literature"]}
{"name":"Laurent Frédéric","collect_list(subject AS subjects)":["Philosophy","Chemistry","Music","Geography","Physics","Biology","Literature","Math","Physical education","History"]}
{"name":"Laurent Marine","collect_list(subject AS subjects)":["Math","Physical education","Literature","History","Physics","Philosophy","Biology","Chemistry"]}
{"name":"Le Goff Léon","collect_list(subject AS subjects)":["Geography","Philosophy","Literature","Physical education","Math","Physics","History","Biology","Chemistry"]}
{"name":"Lebrun Christian","collect_list(subject AS subjects)":["Physical education","Music","History","Math","Biology","Literature","Philosophy","Chemistry","Geography","Physics"]}
{"name":"Lecomte Eric","collect_list(subject AS subjects)":["Math","Physics","History","Geography","Philosophy","Literature","Biology","Chemistry"]}
{"name":"Lefebvre Henri","collect_list(subject AS subjects)":["Physical education","Chemistry","Biology","Philosophy","Physics","Geography","Literature","Math","History"]}
{"name":"Lefevre Brigitte","collect_list(subject AS subjects)":["Philosophy","Physics","Physical education","Literature","History","Chemistry","Music","Geography","Math","Biology"]}
{"name":"Legrand Odette","collect_list(subject AS subjects)":["Physics","Biology","History","Literature","Physical education","Math","Chemistry","Philosophy"]}
{"name":"Lejeune Jean","collect_list(subject AS subjects)":["Geography","Math","Philosophy","History","Chemistry","Biology","Physics","Literature","Art","Physical education"]}
{"name":"Lemaitre Paulette","collect_list(subject AS subjects)":["Physics","Math","Philosophy","Biology","Physical education","Literature","History","Geography","Chemistry"]}
{"name":"Lemoine Christophe","collect_list(subject AS subjects)":["Physical education","History","Literature","Geography","Physics","Philosophy","Math","Biology","Art","Chemistry"]}
{"name":"Leroy Lucas","collect_list(subject AS subjects)":["Philosophy","Biology","Geography","Math","Literature","Chemistry","Physical education","Art","Physics","History"]}
{"name":"Leveque Olivier","collect_list(subject AS subjects)":["Biology","Physical education","Chemistry","Geography","Literature","Art","Physics","Math","History","Philosophy"]}
{"name":"Lopez Guillaume","collect_list(subject AS subjects)":["Math","Biology","History","Physics","Chemistry","Geography","Literature","Philosophy"]}
{"name":"Louis Anne","collect_list(subject AS subjects)":["Physical education","Philosophy","Biology","Literature","Art","Physics","History","Math","Geography","Chemistry"]}
{"name":"Louis Florian","collect_list(subject AS subjects)":["Chemistry","Physical education","Math","Physics","Philosophy","History","Literature","Music","Biology","Geography"]}
{"name":"Lucas Fernand","collect_list(subject AS subjects)":["Geography","History","Physical education","Physics","Chemistry","Philosophy","Math","Literature","Music","Biology"]}
{"name":"Maillard Georgette","collect_list(subject AS subjects)":["Geography","Philosophy","Literature","History","Biology","Physics","Chemistry","Math"]}
{"name":"Mallet Josette","collect_list(subject AS subjects)":["Philosophy","Chemistry","Geography","Biology","Physical education","Math","Music","Literature","Physics","History"]}
{"name":"Marchand Marcel","collect_list(subject AS subjects)":["Geography","Biology","Physical education","Music","History","Math","Physics","Philosophy","Chemistry","Literature"]}
{"name":"Marie Mireille","collect_list(subject AS subjects)":["History","Physical education","Physics","Geography","Biology","Philosophy","Literature","Math","Art","Chemistry"]}
{"name":"Marie Sylvie","collect_list(subject AS subjects)":["Philosophy","History","Biology","Physics","Math","Literature","Physical education","Chemistry"]}
{"name":"Martin Florence","collect_list(subject AS subjects)":["Literature","History","Art","Math","Physical education","Physics","Philosophy","Chemistry","Geography","Biology"]}
{"name":"Marty Fernand","collect_list(subject AS subjects)":["Geography","Chemistry","Physical education","Philosophy","Physics","History","Art","Biology","Math","Literature"]}
{"name":"Menard Marguerite","collect_list(subject AS subjects)":["Biology","Music","History","Physics","Chemistry","Physical education","Math","Literature","Philosophy","Geography"]}
{"name":"Mercier Claire","collect_list(subject AS subjects)":["Math","Biology","Chemistry","Physics","Physical education","Music","Geography","Philosophy","Literature","History"]}
{"name":"Mercier Claudine","collect_list(subject AS subjects)":["Literature","Philosophy","Math","History","Chemistry","Biology","Geography","Physics"]}
{"name":"Meunier Georges","collect_list(subject AS subjects)":["Literature","Geography","Physical education","Physics","History","Biology","Math","Philosophy","Chemistry"]}
{"name":"Michaud Bernadette","collect_list(subject AS subjects)":["Geography","History","Physics","Philosophy","Literature","Chemistry","Biology","Math","Physical education"]}
{"name":"Michel Annie","collect_list(subject AS subjects)":["Math","Physical education","Physics","Philosophy","Geography","Chemistry","Literature","Biology","History"]}
{"name":"Morin Pauline","collect_list(subject AS subjects)":["Literature","Physical education","Biology","Philosophy","Chemistry","Geography","History","Physics","Math"]}
{"name":"Moulin Serge","collect_list(subject AS subjects)":["Chemistry","Biology","Physical education","Literature","Math","Philosophy","History","Physics"]}
{"name":"Muller Dominique","collect_list(subject AS subjects)":["Literature","Philosophy","Physical education","Music","Math","Chemistry","Biology","Physics","History","Geography"]}
{"name":"Muller Joël","collect_list(subject AS subjects)":["Biology","Physics","Math","History","Literature","Chemistry","Geography","Philosophy"]}
{"name":"Muller Sandrine","collect_list(subject AS subjects)":["Geography","Math","Chemistry","Physics","Art","Philosophy","Physical education","Biology","History","Literature"]}
{"name":"Muller Simone","collect_list(subject AS subjects)":["Math","Physics","History","Chemistry","Physical education","Philosophy","Literature","Biology"]}
{"name":"Nicolas Léa","collect_list(subject AS subjects)":["Chemistry","Philosophy","History","Math","Physics","Literature","Biology","Physical education"]}
{"name":"Olivier Thérèse","collect_list(subject AS subjects)":["Biology","Literature","Chemistry","History","Math","Physical education","Geography","Physics","Philosophy"]}
{"name":"Paris Adrien","collect_list(subject AS subjects)":["Biology","Physical education","Geography","Chemistry","Physics","Philosophy","Music","Math","History","Literature"]}
{"name":"Paris Marine","collect_list(subject AS subjects)":["Physics","Math","Philosophy","Biology","Geography","Physical education","History","Literature","Chemistry","Art"]}
{"name":"Pelletier Véronique","collect_list(subject AS subjects)":["Geography","Philosophy","Music","Physics","History","Chemistry","Biology","Math","Literature","Physical education"]}
{"name":"Perez Claudine","collect_list(subject AS subjects)":["Chemistry","Biology","Philosophy","Physics","History","Physical education","Math","Literature"]}
{"name":"Perret Marine","collect_list(subject AS subjects)":["Geography","Math","Philosophy","Physical education","Literature","History","Physics","Biology","Music","Chemistry"]}
{"name":"Perrier Jean-Luc","collect_list(subject AS subjects)":["Physical education","Chemistry","Geography","History","Physics","Biology","Literature","Music","Math","Philosophy"]}
{"name":"Perrier Mathieu","collect_list(subject AS subjects)":["History","Physics","Chemistry","Biology","Philosophy","Geography","Literature","Math"]}
{"name":"Perrin Florence","collect_list(subject AS subjects)":["Math","Biology","Geography","Chemistry","Physics","History","Physical education","Philosophy","Literature"]}
{"name":"Perrin Roland","collect_list(subject AS subjects)":["Biology","Math","History","Literature","Physical education","Art","Physics","Philosophy","Chemistry","Geography"]}
{"name":"Philippe Eric","collect_list(subject AS subjects)":["Physical education","Geography","Philosophy","Chemistry","Math","Physics","Literature","History","Biology"]}
{"name":"Picard Sophie","collect_list(subject AS subjects)":["Geography","Physics","Literature","Math","Philosophy","Chemistry","Physical education","Music","History","Biology"]}
{"name":"Pierre Jean","collect_list(subject AS subjects)":["History","Biology","Geography","Physics","Chemistry","Literature","Philosophy","Math"]}
{"name":"Poirier Martine","collect_list(subject AS subjects)":["Physical education","Music","Biology","Physics","Philosophy","Geography","Chemistry","Literature","History","Math"]}
{"name":"Renard Patricia","collect_list(subject AS subjects)":["Math","Chemistry","Geography","History","Physical education","Physics","Biology","Philosophy","Literature"]}
{"name":"Renault Sylvie","collect_list(subject AS subjects)":["Philosophy","Math","Biology","Art","History","Chemistry","Literature","Physical education","Physics","Geography"]}
{"name":"Rey Kevin","collect_list(subject AS subjects)":["Physics","Geography","Literature","Biology","History","Physical education","Chemistry","Music","Math","Philosophy"]}
{"name":"Reynaud Denise","collect_list(subject AS subjects)":["Geography","Biology","History","Physics","Chemistry","Philosophy","Literature","Math"]}
{"name":"Reynaud Monique","collect_list(subject AS subjects)":["Literature","History","Chemistry","Math","Physics","Philosophy","Biology","Geography"]}
{"name":"Richard Clément","collect_list(subject AS subjects)":["Chemistry","Philosophy","Biology","Physical education","Literature","Math","Physics","History"]}
{"name":"Roche Gabriel","collect_list(subject AS subjects)":["Physical education","Math","Physics","Chemistry","Music","Literature","Philosophy","History","Biology","Geography"]}
{"name":"Roger Marcelle","collect_list(subject AS subjects)":["Physics","Math","Biology","Chemistry","Physical education","History","Literature","Philosophy"]}
{"name":"Rolland Denis","collect_list(subject AS subjects)":["Math","Biology","Physics","History","Geography","Philosophy","Literature","Chemistry"]}
{"name":"Rolland Roger","collect_list(subject AS subjects)":["Physics","Philosophy","Geography","Physical education","Chemistry","History","Music","Biology","Literature","Math"]}
{"name":"Roux Odette","collect_list(subject AS subjects)":["Philosophy","Physics","Geography","Physical education","Math","Biology","Literature","History","Chemistry"]}
{"name":"Roy Romain","collect_list(subject AS subjects)":["Math","Physical education","Literature","Geography","Chemistry","Biology","Art","Physics","History","Philosophy"]}
{"name":"Royer Serge","collect_list(subject AS subjects)":["Physical education","Biology","Literature","Chemistry","History","Math","Philosophy","Physics"]}
{"name":"Royer Valérie","collect_list(subject AS subjects)":["History","Art","Chemistry","Philosophy","Biology","Physical education","Physics","Literature","Geography","Math"]}
{"name":"Sanchez Alice","collect_list(subject AS subjects)":["Chemistry","Physical education","Literature","Philosophy","Physics","Biology","Music","Math","History","Geography"]}
{"name":"Sanchez Mélanie","collect_list(subject AS subjects)":["Math","Philosophy","Physics","Literature","Physical education","Biology","Art","Geography","History","Chemistry"]}
{"name":"Schneider Claude","collect_list(subject AS subjects)":["Literature","Philosophy","Math","Physics","Biology","Geography","Chemistry","Music","History","Physical education"]}
{"name":"Schneider Henriette","collect_list(subject AS subjects)":["Physical education","Biology","Literature","History","Philosophy","Chemistry","Math","Geography","Physics"]}
{"name":"Schneider Stéphanie","collect_list(subject AS subjects)":["Literature","Philosophy","Biology","History","Chemistry","Geography","Art","Math","Physical education","Physics"]}
{"name":"Simon Dominique","collect_list(subject AS subjects)":["Geography","Math","Literature","Physics","Biology","Philosophy","History","Chemistry"]}
{"name":"Simon Mathilde","collect_list(subject AS subjects)":["Physics","Chemistry","Philosophy","Literature","Biology","History","Geography","Math"]}
{"name":"Tessier Mireille","collect_list(subject AS subjects)":["Literature","Physical education","Math","Physics","Geography","History","Biology","Philosophy","Chemistry"]}
{"name":"Thomas Nicole","collect_list(subject AS subjects)":["Math","Geography","Chemistry","History","Physics","Philosophy","Literature","Biology"]}
{"name":"Vasseur Marguerite","collect_list(subject AS subjects)":["History","Physical education","Math","Biology","Physics","Chemistry","Literature","Philosophy","Geography"]}
{"name":"Vasseur Mathilde","collect_list(subject AS subjects)":["Math","Literature","Philosophy","Chemistry","Geography","Physics","Physical education","History","Biology","Art"]}
{"name":"Vincent Jacques","collect_list(subject AS subjects)":["Geography","Physical education","Physics","Math","Literature","Biology","Philosophy","History","Chemistry"]}
{"name":"Weber Emile","collect_list(subject AS subjects)":["Chemistry","Biology","Literature","Philosophy","Physics","Geography","Math","History"]}
{"name":"Weber Gérard","collect_list(subject AS subjects)":["Art","Chemistry","Philosophy","Biology","Math","Physical education","History","Physics","Literature","Geography"]}
{"name":"Weber Kevin","collect_list(subject AS subjects)":["Math","Philosophy","History","Physics","Chemistry","Physical education","Literature","Geography","Biology"]}
{"name":"Weber Marine","collect_list(subject AS subjects)":["Chemistry","Philosophy","Math","Physics","Physical education","Biology","Literature","History"]}
