{"name":"Maillard Georgette","subject":"Math","average_score":15.22}
{"name":"Royer Valérie","subject":"Math","average_score":16.55}
{"name":"Lemaitre Paulette","subject":"Geography","average_score":7.35}
{"name":"Michel Annie","subject":"Biology","average_score":6.47}
{"name":"Muller Dominique","subject":"Geography","average_score":4.43}
{"name":"Rey Kevin","subject":"Music","average_score":4.15}
{"name":"Roche Gabriel","subject":"Geography","average_score":1.9}
{"name":"Poirier Martine","subject":"Math","average_score":15.0}
{"name":"Benard Romain","subject":"Literature","average_score":2.13}
{"name":"Jacquet Bernard","subject":"Philosophy","average_score":2.0}
{"name":"Muller Joël","subject":"Chemistry","average_score":13.85}
{"name":"Marie Sylvie","subject":"Chemistry","average_score":2.01}
{"name":"Roy Romain","subject":"Philosophy","average_score":15.9}
{"name":"Girard Juliette","subject":"Physics","average_score":16.99}
{"name":"Dufour Suzanne","subject":"Biology","average_score":3.23}
{"name":"Michel Annie","subject":"History","average_score":10.53}
{"name":"Grondin Suzanne","subject":"Chemistry","average_score":13.86}
{"name":"Perrier Jean-Luc","subject":"Philosophy","average_score":18.0}
{"name":"Charles Florian","subject":"Music","average_score":14.96}
{"name":"Laurent Marine","subject":"Chemistry","average_score":14.79}
{"name":"Lejeune Jean","subject":"Art","average_score":4.31}
{"name":"Garnier Chloé","subject":"Physical education","average_score":4.21}
{"name":"Olivier Thérèse","subject":"Philosophy","average_score":8.34}
{"name":"Cousin Florence","subject":"Physics","average_score":13.0}
{"name":"Richard Clément","subject":"Math","average_score":15.79}
{"name":"Delaunay Jerome","subject":"Physics","average_score":18.53}
{"name":"Garnier Chloé","subject":"Literature","average_score":3.42}
{"name":"Grondin Gabriel","subject":"Philosophy","average_score":14.72}
{"name":"Rolland Roger","subject":"Math","average_score":14.67}
{"name":"David Jacques","subject":"Literature","average_score":18.65}
{"name":"Deschamps Alice","subject":"Literature","average_score":7.46}
{"name":"Jacquet Bernard","subject":"Literature","average_score":18.23}
{"name":"Muller Joël","subject":"Geography","average_score":1.96}
{"name":"Philippe Eric","subject":"Biology","average_score":18.57}
{"name":"Weber Kevin","subject":"Physical education","average_score":8.0}
{"name":"Schneider Claude","subject":"History","average_score":3.51}
{"name":"Lefevre Brigitte","subject":"Math","average_score":3.87}
{"name":"Bailly Lucas","subject":"Math","average_score":15.86}
{"name":"Reynaud Denise","subject":"Math","average_score":10.92}
{"name":"Germain Benjamin","subject":"Physics","average_score":6.7}
{"name":"Baron Thierry","subject":"Physics","average_score":17.64}
{"name":"Muller Simone","subject":"Literature","average_score":5.78}
{"name":"Vasseur Mathilde","subject":"Biology","average_score":8.51}
{"name":"Muller Sandrine","subject":"Literature","average_score":4.24}
{"name":"Grondin Suzanne","subject":"Math","average_score":15.3}
{"name":"Bernard Jacqueline","subject":"Physics","average_score":0.5}
{"name":"Richard Clément","subject":"Physics","average_score":15.21}
{"name":"Joly Emmanuel","subject":"Physical education","average_score":11.0}
{"name":"Leveque Olivier","subject":"Physics","average_score":17.9}
{"name":"Renault Sylvie","subject":"Physics","average_score":14.27}
{"name":"Blanc Audrey","subject":"History","average_score":14.99}
{"name":"Antoine Paul","subject":"Biology","average_score":19.46}
{"name":"Grondin Gabriel","subject":"History","average_score":10.0}
{"name":"Le Goff Léon","subject":"Chemistry","average_score":12.29}
{"name":"Michaud Bernadette","subject":"Physical education","average_score":17.57}
{"name":"Charles Laetitia","subject":"Biology","average_score":6.77}
{"name":"Herve Charlotte","subject":"History","average_score":18.0}
{"name":"Vasseur Mathilde","subject":"Art","average_score":17.95}
{"name":"Fontaine Emile","subject":"Chemistry","average_score":15.0}
{"name":"Renard Patricia","subject":"Philosophy","average_score":18.4}
{"name":"Bernard Jacqueline","subject":"Biology","average_score":11.0}
{"name":"Baron Thierry","subject":"Geography","average_score":11.47}
{"name":"Fournier Eliane","subject":"Chemistry","average_score":17.62}
{"name":"Hubert Pierre","subject":"Physics","average_score":17.77}
{"name":"Mercier Claire","subject":"History","average_score":17.1}
{"name":"Colin Christine","subject":"Biology","average_score":10.55}
{"name":"Colin Christine","subject":"History","average_score":4.66}
{"name":"Thomas Nicole","subject":"Biology","average_score":9.99}
{"name":"Leveque Olivier","subject":"Math","average_score":11.0}
{"name":"Louis Anne","subject":"Geography","average_score":17.96}
{"name":"Hubert Laurence","subject":"Biology","average_score":5.93}
{"name":"Perrin Florence","subject":"Literature","average_score":15.69}
{"name":"Bernard Jacqueline","subject":"Chemistry","average_score":9.27}
{"name":"Chevallier Paulette","subject":"Philosophy","average_score":11.95}
{"name":"Gaillard Stéphanie","subject":"Physics","average_score":7.99}
{"name":"Lopez Guillaume","subject":"Literature","average_score":3.07}
{"name":"Gerard Suzanne","subject":"Physical education","average_score":5.16}
{"name":"Weber Marine","subject":"Biology","average_score":1.05}
{"name":"Legrand Odette","subject":"Chemistry","average_score":1.0}
{"name":"Klein Damien","subject":"Physical education","average_score":6.64}
{"name":"Lejeune Jean","subject":"Physical education","average_score":16.69}
{"name":"Leroy Lucas","subject":"Physics","average_score":16.94}
{"name":"Vincent Jacques","subject":"History","average_score":8.4}
{"name":"Charles Florian","subject":"Physical education","average_score":17.48}
{"name":"Boulanger Brigitte","subject":"Physics","average_score":7.0}
{"name":"Weber Marine","subject":"Literature","average_score":14.43}
{"name":"Legrand Odette","subject":"Philosophy","average_score":18.12}
{"name":"Sanchez Mélanie","subject":"Chemistry","average_score":12.84}
{"name":"Renault Sylvie","subject":"Geography","average_score":5.0}
{"name":"Fontaine Emile","subject":"History","average_score":11.77}
{"name":"Hoarau Paul","subject":"Math","average_score":17.37}
{"name":"Renard Patricia","subject":"Literature","average_score":8.47}
{"name":"Lefevre Brigitte","subject":"Biology","average_score":8.89}
{"name":"Deschamps Alice","subject":"Music","average_score":14.42}
{"name":"Barthelemy Dominique","subject":"Literature","average_score":5.31}
{"name":"Jacquet Fernand","subject":"Math","average_score":1.67}
{"name":"Joly Christine","subject":"Philosophy","average_score":6.23}
{"name":"Lemoine Christophe","subject":"Chemistry","average_score":13.82}
{"name":"Hoarau Paul","subject":"History","average_score":5.7}
{"name":"Bernard Karine","subject":"Biology","average_score":2.1}
{"name":"Antoine Sylvie","subject":"Art","average_score":2.33}
{"name":"Antoine Paul","subject":"Geography","average_score":1.58}
{"name":"Roux Odette","subject":"Chemistry","average_score":1.9}
{"name":"Carpentier Roger","subject":"Physics","average_score":13.0}
{"name":"Schneider Claude","subject":"Physical education","average_score":14.99}
{"name":"Barthelemy Dominique","subject":"Biology","average_score":14.74}
{"name":"Simon Dominique","subject":"Chemistry","average_score":11.68}
{"name":"Carlier Florence","subject":"Physics","average_score":4.98}
{"name":"Klein Laetitia","subject":"Biology","average_score":9.15}
{"name":"Laurent Frédéric","subject":"History","average_score":0.86}
{"name":"Chevallier Victor","subject":"Chemistry","average_score":19.0}
{"name":"Muller Simone","subject":"Biology","average_score":15.6}
{"name":"Perez Claudine","subject":"Math","average_score":7.03}
{"name":"Marty Fernand","subject":"Literature","average_score":0.5}
{"name":"Blanc Audrey","subject":"Math","average_score":8.57}
{"name":"Bourgeois Jean-Claude","subject":"Biology","average_score":13.22}
{"name":"Weber Kevin","subject":"Literature","average_score":14.0}
{"name":"Lucas Fernand","subject":"Music","average_score":14.57}
{"name":"Gaillard Stéphanie","subject":"Chemistry","average_score":12.13}
{"name":"Reynaud Monique","subject":"Geography","average_score":2.18}
{"name":"Herve Charlotte","subject":"Literature","average_score":12.23}
{"name":"Guillot Isabelle","subject":"Physics","average_score":10.12}
{"name":"Bourgeois Jean-Claude","subject":"Geography","average_score":12.6}
{"name":"Besson Michèle","subject":"Philosophy","average_score":8.72}
{"name":"Mallet Josette","subject":"History","average_score":6.42}
{"name":"Pelletier Véronique","subject":"Math","average_score":15.22}
{"name":"Pierre Jean","subject":"Philosophy","average_score":10.87}
{"name":"Richard Clément","subject":"History","average_score":12.19}
{"name":"Gerard Denis","subject":"History","average_score":9.11}
{"name":"Guillot Isabelle","subject":"Math","average_score":17.25}
{"name":"Vasseur Marguerite","subject":"Geography","average_score":7.39}
{"name":"Henry Odette","subject":"Math","average_score":15.24}
{"name":"Simon Mathilde","subject":"Math","average_score":15.16}
{"name":"Baron Thierry","subject":"Chemistry","average_score":4.0}
{"name":"Nicolas Léa","subject":"Biology","average_score":15.52}
{"name":"Leveque Olivier","subject":"History","average_score":4.42}
{"name":"Garnier Chloé","subject":"History","average_score":18.55}
{"name":"Dufour Suzanne","subject":"Philosophy","average_score":13.48}
{"name":"Lacroix Denis","subject":"History","average_score":11.78}
{"name":"Vincent Jacques","subject":"Chemistry","average_score":1.33}
{"name":"Lemaitre Paulette","subject":"Chemistry","average_score":8.45}
{"name":"Weber Kevin","subject":"Geography","average_score":5.21}
{"name":"Gaillard Stéphanie","subject":"Biology","average_score":12.84}
{"name":"Antoine Julien","subject":"Math","average_score":7.15}
{"name":"Gerard Suzanne","subject":"Philosophy","average_score":13.7}
{"name":"Paris Marine","subject":"Art","average_score":7.21}
{"name":"Girard Juliette","subject":"Geography","average_score":14.87}
{"name":"Hubert Quentin","subject":"Literature","average_score":8.33}
{"name":"Carlier Florence","subject":"Philosophy","average_score":13.08}
{"name":"Leroy Lucas","subject":"History","average_score":14.89}
{"name":"Tessier Mireille","subject":"Chemistry","average_score":13.0}
{"name":"Henry Odette","subject":"Biology","average_score":1.15}
{"name":"Morin Pauline","subject":"Math","average_score":19.0}
{"name":"Louis Florian","subject":"Biology","average_score":7.37}
{"name":"Sanchez Alice","subject":"Music","average_score":1.9}
{"name":"Chevallier Victor","subject":"Music","average_score":13.35}
{"name":"Lopez Guillaume","subject":"Philosophy","average_score":7.24}
{"name":"Perez Claudine","subject":"Literature","average_score":2.67}
{"name":"Fournier Eliane","subject":"Literature","average_score":0.97}
{"name":"Gillet Hervé","subject":"History","average_score":9.73}
{"name":"Guillot Isabelle","subject":"Biology","average_score":18.82}
{"name":"Dufour Suzanne","subject":"Chemistry","average_score":12.81}
{"name":"Aubert Adrien","subject":"Philosophy","average_score":12.21}
{"name":"Pelletier Véronique","subject":"Literature","average_score":1.84}
{"name":"Charles Laetitia","subject":"Math","average_score":13.0}
{"name":"Hoarau Jeannine","subject":"Philosophy","average_score":13.26}
{"name":"Bernard Karine","subject":"Geography","average_score":16.98}
{"name":"Weber Kevin","subject":"Biology","average_score":11.97}
{"name":"Boulanger Brigitte","subject":"Biology","average_score":15.98}
{"name":"Boulanger Brigitte","subject":"Chemistry","average_score":4.0}
{"name":"Benoit Nadine","subject":"Philosophy","average_score":17.53}
{"name":"Weber Gérard","subject":"Literature","average_score":16.0}
{"name":"Sanchez Alice","subject":"Math","average_score":10.02}
{"name":"Sanchez Alice","subject":"History","average_score":18.13}
{"name":"Sanchez Alice","subject":"Geography","average_score":4.97}
{"name":"Menard Marguerite","subject":"Geography","average_score":17.18}
{"name":"Lucas Fernand","subject":"Biology","average_score":11.17}
{"name":"Charles Florian","subject":"Math","average_score":11.67}
{"name":"Pierre Jean","subject":"Math","average_score":17.15}
{"name":"Weber Gérard","subject":"Geography","average_score":15.66}
{"name":"Garnier Chloé","subject":"Chemistry","average_score":6.85}
{"name":"Grondin Suzanne","subject":"History","average_score":10.79}
{"name":"Chevallier Paulette","subject":"Literature","average_score":3.96}
{"name":"Dufour Corinne","subject":"History","average_score":5.11}
{"name":"Muller Joël","subject":"Philosophy","average_score":2.27}
{"name":"Hoarau Paul","subject":"Literature","average_score":8.82}
{"name":"Girard Juliette","subject":"Literature","average_score":1.93}
{"name":"Charpentier Adrien","subject":"Physics","average_score":2.64}
{"name":"Carre Jeremy","subject":"Physical education","average_score":2.98}
{"name":"Carre Jeremy","subject":"Chemistry","average_score":10.07}
{"name":"Rey Kevin","subject":"Math","average_score":12.16}
{"name":"Pelletier Véronique","subject":"Physical education","average_score":3.58}
{"name":"Royer Serge","subject":"Physics","average_score":6.47}
{"name":"Charpentier Adrien","subject":"Geography","average_score":9.92}
{"name":"Louis Florian","subject":"Geography","average_score":11.67}
{"name":"Marchand Marcel","subject":"Literature","average_score":12.0}
{"name":"Hoarau Jeannine","subject":"Math","average_score":10.7}
{"name":"Nicolas Léa","subject":"Physical education","average_score":12.83}
{"name":"Roger Marcelle","subject":"Philosophy","average_score":4.46}
{"name":"Jacquet Fernand","subject":"Physical education","average_score":12.25}
{"name":"Hubert Laurence","subject":"Geography","average_score":10.26}
{"name":"Faure Christophe","subject":"Chemistry","average_score":0.5}
{"name":"Lambert Eliane","subject":"Literature","average_score":16.0}
{"name":"Andre Emmanuel","subject":"Physics","average_score":5.0}
{"name":"Grondin Gabriel","subject":"Literature","average_score":19.0}
{"name":"Jean Emilie","subject":"Physics","average_score":1.35}
{"name":"Rey Kevin","subject":"Philosophy","average_score":8.6}
{"name":"Charles Florian","subject":"Philosophy","average_score":15.86}
{"name":"Mercier Claudine","subject":"Physics","average_score":14.43}
{"name":"Moulin Serge","subject":"Physics","average_score":11.0}
{"name":"Benoit Nadine","subject":"Physical education","average_score":20.0}
{"name":"Leveque Olivier","subject":"Philosophy","average_score":13.34}
{"name":"Louis Anne","subject":"Chemistry","average_score":5.21}
{"name":"Antoine Paul","subject":"Physical education","average_score":16.83}
{"name":"Huet Martine","subject":"Physics","average_score":18.7}
{"name":"David Jacques","subject":"Math","average_score":18.44}
{"name":"Weber Marine","subject":"History","average_score":7.06}
{"name":"Bouvier Gérard","subject":"Biology","average_score":13.92}
{"name":"Delaunay Jerome","subject":"Literature","average_score":12.11}
{"name":"Perrin Florence","subject":"Math","average_score":13.87}
{"name":"Roche Gabriel","subject":"Physical education","average_score":14.59}
{"name":"Antoine Julien","subject":"Physics","average_score":5.27}
{"name":"Barbier Nicole","subject":"Physical education","average_score":17.28}
{"name":"Klein Laetitia","subject":"Literature","average_score":9.14}
{"name":"Roux Odette","subject":"Philosophy","average_score":5.0}
{"name":"Henry Odette","subject":"Geography","average_score":15.97}
{"name":"Dufour Corinne","subject":"Philosophy","average_score":3.16}
{"name":"Gerard Suzanne","subject":"Literature","average_score":2.25}
{"name":"Hubert Alexis","subject":"Literature","average_score":17.92}
{"name":"Da Silva Jacques","subject":"Math","average_score":1.15}
{"name":"Herve Charlotte","subject":"Biology","average_score":12.54}
{"name":"Louis Anne","subject":"Physical education","average_score":1.16}
{"name":"Tessier Mireille","subject":"Literature","average_score":14.89}
{"name":"Chevallier Victor","subject":"Literature","average_score":4.0}
{"name":"Laurent Marine","subject":"Math","average_score":7.26}
{"name":"Philippe Eric","subject":"Physical education","average_score":10.0}
{"name":"Chevallier Paulette","subject":"Physical education","average_score":5.05}
{"name":"Pelletier Véronique","subject":"Geography","average_score":13.34}
{"name":"Joly Emmanuel","subject":"Math","average_score":8.29}
{"name":"Paris Marine","subject":"Physics","average_score":17.51}
{"name":"Perrin Roland","subject":"Biology","average_score":19.69}
{"name":"Philippe Eric","subject":"Geography","average_score":13.02}
{"name":"Bourgeois Jean-Claude","subject":"Philosophy","average_score":6.03}
{"name":"Lefevre Brigitte","subject":"Philosophy","average_score":11.63}
{"name":"Roche Gabriel","subject":"Math","average_score":6.84}
{"name":"Reynaud Denise","subject":"Geography","average_score":6.38}
{"name":"Simon Dominique","subject":"Geography","average_score":15.83}
{"name":"Pierre Jean","subject":"History","average_score":7.52}
{"name":"Muller Simone","subject":"Math","average_score":15.0}
{"name":"Marty Fernand","subject":"Geography","average_score":1.82}
{"name":"Paris Marine","subject":"Math","average_score":2.24}
{"name":"Lemaitre Paulette","subject":"Physics","average_score":13.0}
{"name":"Jean Emilie","subject":"Math","average_score":13.73}
{"name":"Louis Florian","subject":"Chemistry","average_score":17.71}
{"name":"Deschamps Alice","subject":"Philosophy","average_score":5.4}
{"name":"Perret Marine","subject":"Geography","average_score":14.53}
{"name":"Sanchez Mélanie","subject":"Math","average_score":3.0}
{"name":"Blanc Audrey","subject":"Philosophy","average_score":11.03}
{"name":"Bernard Jacqueline","subject":"Philosophy","average_score":17.9}
{"name":"Lefevre Brigitte","subject":"Physics","average_score":8.45}
{"name":"Charles Florian","subject":"History","average_score":16.55}
{"name":"Hubert Alexis","subject":"History","average_score":14.68}
{"name":"Klein Damien","subject":"Biology","average_score":9.86}
{"name":"Aubert Adrien","subject":"Physics","average_score":17.0}
{"name":"Grondin Gabriel","subject":"Physical education","average_score":5.85}
{"name":"Jean Emilie","subject":"Biology","average_score":19.0}
{"name":"Mercier Claire","subject":"Math","average_score":18.74}
{"name":"Perret Marine","subject":"Math","average_score":17.89}
{"name":"Marchand Marcel","subject":"Geography","average_score":13.88}
{"name":"Lecomte Eric","subject":"Math","average_score":8.82}
{"name":"Chauvin Laurent","subject":"History","average_score":11.0}
{"name":"Humbert Thomas","subject":"Physics","average_score":14.44}
{"name":"Gerard Denis","subject":"Chemistry","average_score":15.58}
{"name":"Benoit Nadine","subject":"Math","average_score":10.12}
{"name":"Paris Marine","subject":"Philosophy","average_score":6.73}
{"name":"Lambert Eliane","subject":"Physical education","average_score":15.3}
{"name":"Weber Kevin","subject":"Math","average_score":2.22}
{"name":"Schneider Claude","subject":"Literature","average_score":14.36}
{"name":"Chevallier Victor","subject":"Math","average_score":10.0}
{"name":"Lucas Fernand","subject":"Geography","average_score":2.9}
{"name":"Roche Gabriel","subject":"Physics","average_score":12.73}
{"name":"Marie Sylvie","subject":"Philosophy","average_score":2.6}
{"name":"Renault Sylvie","subject":"Philosophy","average_score":7.74}
{"name":"Charpentier Adrien","subject":"Biology","average_score":5.22}
{"name":"Le Goff Léon","subject":"Geography","average_score":17.89}
{"name":"Renard Patricia","subject":"Math","average_score":14.0}
{"name":"Besson Michèle","subject":"Physical education","average_score":17.71}
{"name":"Picard Sophie","subject":"Geography","average_score":15.7}
{"name":"Mallet Josette","subject":"Philosophy","average_score":6.61}
{"name":"Colin Christine","subject":"Math","average_score":1.81}
{"name":"Lopez Guillaume","subject":"Math","average_score":1.86}
{"name":"Weber Marine","subject":"Chemistry","average_score":3.22}
{"name":"Muller Sandrine","subject":"Geography","average_score":7.93}
{"name":"Lebrun Christian","subject":"Physical education","average_score":1.95}
{"name":"Jean Emilie","subject":"Geography","average_score":2.0}
{"name":"Louis Florian","subject":"Physical education","average_score":2.25}
{"name":"Maillard Georgette","subject":"Geography","average_score":2.34}
{"name":"Weber Marine","subject":"Philosophy","average_score":15.91}
{"name":"Fontaine Emile","subject":"Geography","average_score":13.0}
{"name":"Schneider Claude","subject":"Philosophy","average_score":1.68}
{"name":"Menard Marguerite","subject":"Biology","average_score":5.71}
{"name":"Dufour Suzanne","subject":"History","average_score":8.34}
{"name":"Grondin Gabriel","subject":"Math","average_score":9.52}
{"name":"David Jacques","subject":"History","average_score":16.19}
{"name":"Perrier Mathieu","subject":"History","average_score":6.99}
{"name":"Renault Sylvie","subject":"Math","average_score":14.0}
{"name":"Perrin Florence","subject":"Biology","average_score":10.0}
{"name":"Le Goff Léon","subject":"Philosophy","average_score":10.0}
{"name":"Michaud Bernadette","subject":"Geography","average_score":19.0}
{"name":"Bourgeois Jean-Claude","subject":"History","average_score":9.0}
{"name":"Mallet Josette","subject":"Chemistry","average_score":15.87}
{"name":"Besson Michèle","subject":"Biology","average_score":19.53}
{"name":"Lefevre Brigitte","subject":"Physical education","average_score":19.09}
{"name":"Deschamps Alice","subject":"Math","average_score":19.73}
{"name":"Poirier Martine","subject":"Physical education","average_score":4.0}
{"name":"Rolland Denis","subject":"Math","average_score":4.74}
{"name":"Thomas Nicole","subject":"Math","average_score":19.13}
{"name":"Simon Mathilde","subject":"Physics","average_score":3.6}
{"name":"Reynaud Monique","subject":"Literature","average_score":9.32}
{"name":"Jacquet Fernand","subject":"Physics","average_score":18.09}
{"name":"Faure Christophe","subject":"Literature","average_score":4.71}
{"name":"Renard Patricia","subject":"Chemistry","average_score":10.76}
{"name":"Hubert Pierre","subject":"Philosophy","average_score":16.12}
{"name":"Paris Adrien","subject":"Biology","average_score":16.64}
{"name":"Hoarau Jeannine","subject":"History","average_score":12.94}
{"name":"Hoarau Jeannine","subject":"Physics","average_score":1.0}
{"name":"Jacquet Fernand","subject":"Chemistry","average_score":6.13}
{"name":"Gillet Mathieu","subject":"Biology","average_score":10.03}
{"name":"Barbier Nicole","subject":"Philosophy","average_score":8.28}
{"name":"Lemaitre Paulette","subject":"Math","average_score":7.97}
{"name":"Perrier Jean-Luc","subject":"Physical education","average_score":5.36}
{"name":"Pierre Jean","subject":"Biology","average_score":7.21}
{"name":"Pierre Jean","subject":"Geography","average_score":12.64}
{"name":"Herve Charlotte","subject":"Physical education","average_score":8.03}
{"name":"Roy Romain","subject":"Math","average_score":13.52}
{"name":"Schneider Henriette","subject":"Physical education","average_score":1.7}
{"name":"Picard Sophie","subject":"Physics","average_score":9.49}
{"name":"Jacquet Bernard","subject":"History","average_score":14.47}
{"name":"Nicolas Léa","subject":"Chemistry","average_score":1.0}
{"name":"Leveque Olivier","subject":"Biology","average_score":18.29}
{"name":"Perrin Roland","subject":"Math","average_score":2.54}
{"name":"Bernard Karine","subject":"Math","average_score":5.0}
{"name":"Tessier Mireille","subject":"Physical education","average_score":4.95}
{"name":"Carpentier Roger","subject":"Physical education","average_score":5.0}
{"name":"Germain Benjamin","subject":"Biology","average_score":9.37}
{"name":"Perez Claudine","subject":"Chemistry","average_score":1.52}
{"name":"Dufour Suzanne","subject":"Literature","average_score":12.79}
{"name":"Lacroix Denis","subject":"Philosophy","average_score":8.42}
{"name":"Weber Kevin","subject":"Philosophy","average_score":7.79}
{"name":"Grondin Suzanne","subject":"Physics","average_score":5.17}
{"name":"Laurent Frédéric","subject":"Philosophy","average_score":19.01}
{"name":"Perret Marine","subject":"Philosophy","average_score":16.88}
{"name":"Chevallier Paulette","subject":"Biology","average_score":15.37}
{"name":"Marty Fernand","subject":"Chemistry","average_score":11.0}
{"name":"Muller Sandrine","subject":"Math","average_score":15.94}
{"name":"Renault Sylvie","subject":"Biology","average_score":8.0}
{"name":"Hubert Laurence","subject":"Physical education","average_score":15.34}
{"name":"Aubert Adrien","subject":"Literature","average_score":17.49}
{"name":"Rolland Roger","subject":"Physics","average_score":17.39}
{"name":"Chevallier Marie","subject":"Biology","average_score":18.12}
{"name":"Roux Odette","subject":"Physics","average_score":15.94}
{"name":"Lemaitre Paulette","subject":"Philosophy","average_score":14.09}
{"name":"Bernard Jacqueline","subject":"Literature","average_score":12.9}
{"name":"Benard Romain","subject":"Geography","average_score":5.25}
{"name":"Lopez Guillaume","subject":"Biology","average_score":3.0}
{"name":"Reynaud Monique","subject":"History","average_score":1.54}
{"name":"Gillet Mathieu","subject":"Physics","average_score":10.1}
{"name":"Hubert Laurence","subject":"Chemistry","average_score":4.91}
{"name":"Henry Odette","subject":"History","average_score":18.54}
{"name":"Huet Martine","subject":"Chemistry","average_score":5.52}
{"name":"Bailly Lucas","subject":"Geography","average_score":4.0}
{"name":"Colin Christine","subject":"Chemistry","average_score":4.95}
{"name":"Leroy Lucas","subject":"Philosophy","average_score":13.64}
{"name":"Royer Valérie","subject":"History","average_score":14.23}
{"name":"Blanchard Claire","subject":"Philosophy","average_score":11.88}
{"name":"Blanchard Claire","subject":"Physical education","average_score":18.37}
{"name":"Lefevre Brigitte","subject":"Literature","average_score":4.1}
{"name":"Benard Romain","subject":"Philosophy","average_score":16.46}
{"name":"Joly Christine","subject":"Literature","average_score":10.41}
{"name":"Benoit Nadine","subject":"Literature","average_score":2.79}
{"name":"Hoarau Paul","subject":"Chemistry","average_score":11.11}
{"name":"Faure Christophe","subject":"Biology","average_score":16.41}
{"name":"Dufour Suzanne","subject":"Math","average_score":14.82}
{"name":"Barbier Nicole","subject":"Math","average_score":7.41}
{"name":"Weber Marine","subject":"Math","average_score":1.12}
{"name":"Royer Serge","subject":"Physical education","average_score":6.59}
{"name":"Weber Gérard","subject":"Art","average_score":6.24}
{"name":"Carre Jeremy","subject":"Geography","average_score":12.12}
{"name":"Andre Emmanuel","subject":"Philosophy","average_score":13.08}
{"name":"Morin Pauline","subject":"Literature","average_score":19.45}
{"name":"Bernard Jacqueline","subject":"Music","average_score":18.0}
{"name":"Marchand Marcel","subject":"Biology","average_score":19.26}
{"name":"Legrand Odette","subject":"Physics","average_score":15.61}
{"name":"Schneider Stéphanie","subject":"Literature","average_score":3.54}
{"name":"Philippe Eric","subject":"Philosophy","average_score":9.81}
{"name":"Vincent Jacques","subject":"Geography","average_score":0.52}
{"name":"Gauthier Gérard","subject":"Music","average_score":14.18}
{"name":"Picard Sophie","subject":"Literature","average_score":7.85}
{"name":"Mallet Josette","subject":"Geography","average_score":15.13}
{"name":"Muller Joël","subject":"Biology","average_score":3.3}
{"name":"Leveque Olivier","subject":"Physical education","average_score":13.7}
{"name":"Louis Anne","subject":"Philosophy","average_score":15.16}
{"name":"Royer Valérie","subject":"Art","average_score":13.98}
{"name":"Perrier Jean-Luc","subject":"Chemistry","average_score":9.92}
{"name":"Hubert Quentin","subject":"Philosophy","average_score":14.3}
{"name":"Simon Mathilde","subject":"Chemistry","average_score":1.53}
{"name":"Roger Marcelle","subject":"Physics","average_score":6.63}
{"name":"Gillet Mathieu","subject":"Chemistry","average_score":16.96}
{"name":"Gillet Mathieu","subject":"Literature","average_score":11.51}
{"name":"Andre Emmanuel","subject":"Chemistry","average_score":18.82}
{"name":"Andre Emmanuel","subject":"Geography","average_score":7.0}
{"name":"Morin Pauline","subject":"Physical education","average_score":11.13}
{"name":"Mercier Claire","subject":"Biology","average_score":10.52}
{"name":"Reynaud Denise","subject":"Biology","average_score":4.75}
{"name":"Boulanger Brigitte","subject":"Literature","average_score":3.64}
{"name":"Carlier Florence","subject":"Geography","average_score":19.74}
{"name":"Schneider Claude","subject":"Math","average_score":12.66}
{"name":"Blanchard Claire","subject":"Biology","average_score":20.0}
{"name":"Reynaud Denise","subject":"History","average_score":18.95}
{"name":"Jacquet Bernard","subject":"Biology","average_score":17.0}
{"name":"Moulin Serge","subject":"Chemistry","average_score":5.48}
{"name":"Delaunay Jerome","subject":"Math","average_score":16.96}
{"name":"Vasseur Mathilde","subject":"Math","average_score":19.21}
{"name":"Marie Mireille","subject":"History","average_score":11.74}
{"name":"Paris Marine","subject":"Biology","average_score":6.0}
{"name":"Paris Marine","subject":"Geography","average_score":0.98}
{"name":"Garnier Chloé","subject":"Physics","average_score":19.0}
{"name":"Michel Annie","subject":"Math","average_score":10.16}
{"name":"Huet Martine","subject":"Biology","average_score":18.89}
{"name":"David Jacques","subject":"Chemistry","average_score":3.43}
{"name":"Mercier Claudine","subject":"Literature","average_score":5.85}
{"name":"Hubert Alexis","subject":"Philosophy","average_score":12.11}
{"name":"Nicolas Léa","subject":"Philosophy","average_score":18.91}
{"name":"Delaunay Jerome","subject":"History","average_score":0.5}
{"name":"Vasseur Mathilde","subject":"Literature","average_score":4.26}
{"name":"Fontaine Emile","subject":"Literature","average_score":1.74}
{"name":"Antoine Sylvie","subject":"Philosophy","average_score":13.09}
{"name":"Michel Annie","subject":"Physical education","average_score":10.54}
{"name":"Louis Anne","subject":"Biology","average_score":6.14}
{"name":"Lambert Eliane","subject":"Chemistry","average_score":0.5}
{"name":"Guillot Isabelle","subject":"History","average_score":15.35}
{"name":"Guillot Isabelle","subject":"Geography","average_score":4.12}
{"name":"Le Goff Léon","subject":"Literature","average_score":9.58}
{"name":"Perrier Jean-Luc","subject":"Geography","average_score":13.11}
{"name":"Hubert Pierre","subject":"Physical education","average_score":7.0}
{"name":"Reynaud Denise","subject":"Physics","average_score":18.17}
{"name":"Fournier Eliane","subject":"Biology","average_score":14.56}
{"name":"Delaunay Jerome","subject":"Chemistry","average_score":5.76}
{"name":"Schneider Henriette","subject":"Biology","average_score":14.69}
{"name":"Roux Odette","subject":"Geography","average_score":0.73}
{"name":"Blanchard Claire","subject":"Physics","average_score":3.21}
{"name":"Barthelemy Dominique","subject":"Chemistry","average_score":18.21}
{"name":"Charles Laetitia","subject":"Geography","average_score":16.0}
{"name":"Humbert Thomas","subject":"Chemistry","average_score":10.07}
{"name":"Muller Sandrine","subject":"Chemistry","average_score":11.0}
{"name":"Schneider Henriette","subject":"Literature","average_score":2.94}
{"name":"Morin Pauline","subject":"Biology","average_score":9.75}
{"name":"Weber Kevin","subject":"History","average_score":9.17}
{"name":"Maillard Georgette","subject":"Philosophy","average_score":15.71}
{"name":"Herve Charlotte","subject":"Philosophy","average_score":18.14}
{"name":"Bouvier Gérard","subject":"Physics","average_score":8.8}
{"name":"Klein Laetitia","subject":"History","average_score":18.59}
{"name":"Muller Dominique","subject":"Literature","average_score":16.55}
{"name":"Schneider Claude","subject":"Physics","average_score":6.01}
{"name":"Roger Marcelle","subject":"Math","average_score":12.01}
{"name":"Legrand Odette","subject":"Biology","average_score":10.56}
{"name":"Marty Fernand","subject":"Physical education","average_score":4.0}
{"name":"Girard Juliette","subject":"Biology","average_score":9.28}
{"name":"Guillot Isabelle","subject":"Literature","average_score":19.0}
{"name":"Andre Emmanuel","subject":"Physical education","average_score":2.73}
{"name":"Marie Mireille","subject":"Physical education","average_score":8.21}
{"name":"Lejeune Jean","subject":"Geography","average_score":14.72}
{"name":"Hubert Laurence","subject":"Literature","average_score":5.33}
{"name":"Weber Gérard","subject":"Chemistry","average_score":7.57}
{"name":"Henry Odette","subject":"Philosophy","average_score":3.47}
{"name":"Marty Fernand","subject":"Philosophy","average_score":12.3}
{"name":"Leroy Lucas","subject":"Biology","average_score":19.52}
{"name":"Grondin Gabriel","subject":"Biology","average_score":10.6}
{"name":"Muller Joël","subject":"Physics","average_score":17.24}
{"name":"Vasseur Mathilde","subject":"Philosophy","average_score":13.01}
{"name":"Sanchez Mélanie","subject":"Philosophy","average_score":3.21}
{"name":"Lejeune Jean","subject":"Math","average_score":12.57}
{"name":"Muller Sandrine","subject":"Physics","average_score":13.0}
{"name":"Le Goff Léon","subject":"Physical education","average_score":18.87}
{"name":"Renard Patricia","subject":"Geography","average_score":4.99}
{"name":"Blanchard Claire","subject":"Geography","average_score":4.59}
{"name":"Picard Sophie","subject":"Math","average_score":19.35}
{"name":"Girard Audrey","subject":"Physics","average_score":10.9}
{"name":"Poirier Martine","subject":"Music","average_score":16.81}
{"name":"Simon Mathilde","subject":"Philosophy","average_score":10.92}
{"name":"Da Silva Jacques","subject":"Biology","average_score":7.64}
{"name":"Perez Claudine","subject":"Biology","average_score":4.97}
{"name":"Fournier Eliane","subject":"History","average_score":9.08}
{"name":"Weber Gérard","subject":"Philosophy","average_score":13.0}
{"name":"Tessier Mireille","subject":"Math","average_score":6.81}
{"name":"Meunier Georges","subject":"Literature","average_score":3.87}
{"name":"Schneider Claude","subject":"Biology","average_score":10.53}
{"name":"Gauthier Gérard","subject":"Chemistry","average_score":1.0}
{"name":"Rolland Denis","subject":"Biology","average_score":6.51}
{"name":"Benard Romain","subject":"Physics","average_score":16.28}
{"name":"Antoine Julien","subject":"Chemistry","average_score":5.03}
{"name":"Perrin Florence","subject":"Geography","average_score":10.49}
{"name":"Perrier Jean-Luc","subject":"History","average_score":13.0}
{"name":"Menard Marguerite","subject":"Music","average_score":18.47}
{"name":"Cousin Florence","subject":"Philosophy","average_score":10.32}
{"name":"Lecomte Eric","subject":"Physics","average_score":2.83}
{"name":"Mercier Claudine","subject":"Philosophy","average_score":6.11}
{"name":"Klein Laetitia","subject":"Math","average_score":1.49}
{"name":"Louis Florian","subject":"Math","average_score":13.71}
{"name":"Lucas Fernand","subject":"History","average_score":17.75}
{"name":"Richard Clément","subject":"Chemistry","average_score":14.54}
{"name":"Vasseur Mathilde","subject":"Chemistry","average_score":16.0}
{"name":"Paris Marine","subject":"Physical education","average_score":18.02}
{"name":"Carpentier Roger","subject":"Chemistry","average_score":10.9}
{"name":"Picard Sophie","subject":"Philosophy","average_score":1.84}
{"name":"Mallet Josette","subject":"Biology","average_score":2.08}
{"name":"Joly Christine","subject":"Math","average_score":3.0}
{"name":"Sanchez Mélanie","subject":"Physics","average_score":2.53}
{"name":"Olivier Thérèse","subject":"Biology","average_score":4.42}
{"name":"Aubert Adrien","subject":"Geography","average_score":17.32}
{"name":"Gauthier Gérard","subject":"Physics","average_score":17.45}
{"name":"Laurent Frédéric","subject":"Chemistry","average_score":3.0}
{"name":"Hubert Quentin","subject":"Math","average_score":10.0}
{"name":"Muller Joël","subject":"Math","average_score":12.16}
{"name":"Martin Florence","subject":"Literature","average_score":3.19}
{"name":"Rolland Roger","subject":"Philosophy","average_score":18.0}
{"name":"Pelletier Véronique","subject":"Philosophy","average_score":19.2}
{"name":"Joly Emmanuel","subject":"Physics","average_score":7.43}
{"name":"Bernard Karine","subject":"Physical education","average_score":15.05}
{"name":"Chevallier Victor","subject":"History","average_score":17.18}
{"name":"Paris Adrien","subject":"Physical education","average_score":6.38}
{"name":"Royer Valérie","subject":"Chemistry","average_score":1.75}
{"name":"Antoine Paul","subject":"Chemistry","average_score":14.83}
{"name":"Huet Martine","subject":"Geography","average_score":17.83}
{"name":"Laurent Frédéric","subject":"Music","average_score":14.91}
{"name":"Paris Adrien","subject":"Geography","average_score":4.99}
{"name":"Germain Benjamin","subject":"Math","average_score":17.95}
{"name":"Vasseur Mathilde","subject":"Geography","average_score":2.39}
{"name":"Faure Christophe","subject":"Math","average_score":18.17}
{"name":"Klein Laetitia","subject":"Physics","average_score":15.48}
{"name":"Aubert Adrien","subject":"Physical education","average_score":9.87}
{"name":"Lefevre Brigitte","subject":"History","average_score":15.76}
{"name":"Charles Florian","subject":"Biology","average_score":18.0}
{"name":"Poirier Martine","subject":"Biology","average_score":5.12}
{"name":"Gaillard Stéphanie","subject":"Literature","average_score":14.71}
{"name":"Humbert Thomas","subject":"Math","average_score":4.21}
{"name":"Joly Christine","subject":"Physical education","average_score":18.36}
{"name":"Marie Mireille","subject":"Physics","average_score":12.56}
{"name":"Roy Romain","subject":"Physical education","average_score":1.98}
{"name":"Barbier Nicole","subject":"Literature","average_score":4.5}
{"name":"Vasseur Marguerite","subject":"History","average_score":10.83}
{"name":"Blanchard Claire","subject":"Literature","average_score":4.61}
{"name":"Chevallier Victor","subject":"Physics","average_score":19.37}
{"name":"Paris Adrien","subject":"Chemistry","average_score":15.61}
{"name":"Vasseur Mathilde","subject":"Physics","average_score":9.12}
{"name":"Paris Marine","subject":"History","average_score":13.81}
{"name":"Royer Valérie","subject":"Philosophy","average_score":7.45}
{"name":"Bernard Jacqueline","subject":"Physical education","average_score":13.02}
{"name":"Lucas Fernand","subject":"Physical education","average_score":18.38}
{"name":"Lecomte Eric","subject":"History","average_score":14.48}
{"name":"Leveque Olivier","subject":"Chemistry","average_score":5.45}
{"name":"Weber Gérard","subject":"Biology","average_score":1.43}
{"name":"Roche Gabriel","subject":"Chemistry","average_score":4.0}
{"name":"Rolland Denis","subject":"Physics","average_score":12.0}
{"name":"Louis Anne","subject":"Literature","average_score":10.0}
{"name":"Bernard Karine","subject":"Chemistry","average_score":3.88}
{"name":"Picard Sophie","subject":"Chemistry","average_score":0.5}
{"name":"Muller Simone","subject":"Physics","average_score":4.0}
{"name":"Vasseur Mathilde","subject":"Physical education","average_score":4.87}
{"name":"Marie Mireille","subject":"Geography","average_score":2.15}
{"name":"Lejeune Jean","subject":"Philosophy","average_score":12.03}
{"name":"Louis Anne","subject":"Art","average_score":12.93}
{"name":"Carpentier Roger","subject":"Math","average_score":9.67}
{"name":"Laurent Frédéric","subject":"Geography","average_score":3.0}
{"name":"Deschamps Alice","subject":"Geography","average_score":19.16}
{"name":"Charles Laetitia","subject":"History","average_score":4.63}
{"name":"Marie Sylvie","subject":"History","average_score":7.13}
{"name":"Henry Odette","subject":"Chemistry","average_score":13.0}
{"name":"Charles Laetitia","subject":"Chemistry","average_score":5.22}
{"name":"Reynaud Monique","subject":"Chemistry","average_score":11.69}
{"name":"Nicolas Léa","subject":"History","average_score":9.63}
{"name":"Royer Serge","subject":"Biology","average_score":13.36}
{"name":"Louis Anne","subject":"Physics","average_score":4.0}
{"name":"Lambert Eliane","subject":"Biology","average_score":0.59}
{"name":"Gillet Hervé","subject":"Chemistry","average_score":10.19}
{"name":"Schneider Claude","subject":"Geography","average_score":2.04}
{"name":"Hubert Pierre","subject":"Math","average_score":12.77}
{"name":"Sanchez Alice","subject":"Chemistry","average_score":4.62}
{"name":"Lucas Fernand","subject":"Physics","average_score":14.15}
{"name":"Girard Audrey","subject":"History","average_score":8.09}
{"name":"Rolland Denis","subject":"History","average_score":5.0}
{"name":"Colin Christine","subject":"Literature","average_score":6.42}
{"name":"Hubert Alexis","subject":"Biology","average_score":17.41}
{"name":"Girard Juliette","subject":"Art","average_score":6.42}
{"name":"Lacroix Denis","subject":"Chemistry","average_score":2.31}
{"name":"Muller Dominique","subject":"Philosophy","average_score":19.26}
{"name":"Perret Marine","subject":"Physical education","average_score":0.74}
{"name":"Simon Dominique","subject":"Math","average_score":6.88}
{"name":"Louis Anne","subject":"History","average_score":15.0}
{"name":"Bourgeois Jean-Claude","subject":"Chemistry","average_score":12.0}
{"name":"Michel Annie","subject":"Physics","average_score":11.95}
{"name":"Sanchez Alice","subject":"Physical education","average_score":4.34}
{"name":"Chevallier Paulette","subject":"Math","average_score":10.42}
{"name":"Chauvin Laurent","subject":"Literature","average_score":1.91}
{"name":"Chauvin Laurent","subject":"Chemistry","average_score":16.0}
{"name":"Perrier Mathieu","subject":"Physics","average_score":16.21}
{"name":"Gerard Suzanne","subject":"Math","average_score":3.6}
{"name":"Muller Simone","subject":"History","average_score":14.93}
{"name":"Schneider Stéphanie","subject":"Philosophy","average_score":12.72}
{"name":"Girard Juliette","subject":"Math","average_score":4.28}
{"name":"Royer Valérie","subject":"Biology","average_score":6.28}
{"name":"Antoine Paul","subject":"History","average_score":9.02}
{"name":"Mallet Josette","subject":"Physical education","average_score":13.39}
{"name":"Royer Valérie","subject":"Physical education","average_score":3.83}
{"name":"Lefebvre Henri","subject":"Physical education","average_score":10.9}
{"name":"Lemaitre Paulette","subject":"Biology","average_score":18.15}
{"name":"Hubert Quentin","subject":"Physics","average_score":3.59}
{"name":"Gillet Mathieu","subject":"Math","average_score":6.37}
{"name":"Martin Florence","subject":"History","average_score":14.0}
{"name":"Barbier Nicole","subject":"Geography","average_score":19.46}
{"name":"Rey Kevin","subject":"Physics","average_score":17.68}
{"name":"Sanchez Alice","subject":"Literature","average_score":14.62}
{"name":"Laurent Marine","subject":"Physical education","average_score":8.12}
{"name":"Bouvier Gérard","subject":"Philosophy","average_score":16.0}
{"name":"Royer Serge","subject":"Literature","average_score":19.56}
{"name":"Schneider Stéphanie","subject":"Biology","average_score":8.0}
{"name":"Renault Sylvie","subject":"Art","average_score":16.53}
{"name":"Lemoine Christophe","subject":"Physical education","average_score":12.18}
{"name":"Lambert Eliane","subject":"Art","average_score":16.48}
{"name":"David Jacques","subject":"Philosophy","average_score":7.98}
{"name":"Fournier Marcelle","subject":"Philosophy","average_score":7.62}
{"name":"Schneider Stéphanie","subject":"History","average_score":2.08}
{"name":"Vasseur Marguerite","subject":"Physical education","average_score":1.55}
{"name":"Grondin Gabriel","subject":"Geography","average_score":7.28}
{"name":"Cousin Florence","subject":"Chemistry","average_score":9.84}
{"name":"Chevallier Marie","subject":"Physical education","average_score":15.0}
{"name":"Martin Florence","subject":"Art","average_score":10.23}
{"name":"Maillard Georgette","subject":"Literature","average_score":1.77}
{"name":"Benoit Nadine","subject":"Chemistry","average_score":11.32}
{"name":"Hubert Laurence","subject":"Art","average_score":15.96}
{"name":"Gillet Hervé","subject":"Biology","average_score":3.0}
{"name":"Carre Jeremy","subject":"Literature","average_score":19.0}
{"name":"Louis Florian","subject":"Physics","average_score":13.79}
{"name":"Lucas Fernand","subject":"Chemistry","average_score":7.8}
{"name":"Rolland Denis","subject":"Geography","average_score":5.07}
{"name":"Mercier Claudine","subject":"Math","average_score":13.65}
{"name":"Chauvin Laurent","subject":"Math","average_score":15.9}
{"name":"Thomas Nicole","subject":"Geography","average_score":3.45}
{"name":"Perrier Mathieu","subject":"Chemistry","average_score":17.88}
{"name":"Fournier Eliane","subject":"Math","average_score":15.77}
{"name":"Weber Gérard","subject":"Math","average_score":16.14}
{"name":"Martin Florence","subject":"Math","average_score":8.0}
{"name":"Martin Florence","subject":"Physical education","average_score":3.12}
{"name":"Andre Emmanuel","subject":"Literature","average_score":2.0}
{"name":"Meunier Georges","subject":"Geography","average_score":16.0}
{"name":"Michel Annie","subject":"Philosophy","average_score":15.12}
{"name":"Lefevre Brigitte","subject":"Chemistry","average_score":9.16}
{"name":"Lucas Fernand","subject":"Philosophy","average_score":8.46}
{"name":"Jacquet Bernard","subject":"Geography","average_score":16.2}
{"name":"Simon Mathilde","subject":"Literature","average_score":15.52}
{"name":"Boulanger Brigitte","subject":"History","average_score":13.42}
{"name":"Da Silva Jacques","subject":"Physics","average_score":10.0}
{"name":"Renault Sylvie","subject":"History","average_score":11.44}
{"name":"Hoarau Paul","subject":"Geography","average_score":12.0}
{"name":"Morin Pauline","subject":"Philosophy","average_score":15.88}
{"name":"Sanchez Alice","subject":"Philosophy","average_score":9.0}
{"name":"Pelletier Véronique","subject":"Music","average_score":11.0}
{"name":"Carlier Florence","subject":"Biology","average_score":8.55}
{"name":"Moulin Serge","subject":"Biology","average_score":17.69}
{"name":"Joly Emmanuel","subject":"Biology","average_score":13.48}
{"name":"Marie Mireille","subject":"Biology","average_score":12.0}
{"name":"Weber Gérard","subject":"Physical education","average_score":15.0}
{"name":"Vasseur Marguerite","subject":"Math","average_score":2.45}
{"name":"Grondin Suzanne","subject":"Geography","average_score":4.81}
{"name":"Pelletier Véronique","subject":"Physics","average_score":5.0}
{"name":"Weber Emile","subject":"Chemistry","average_score":9.73}
{"name":"Richard Clément","subject":"Philosophy","average_score":16.58}
{"name":"Marie Sylvie","subject":"Biology","average_score":4.95}
{"name":"Marty Fernand","subject":"Physics","average_score":11.36}
{"name":"Mercier Claire","subject":"Chemistry","average_score":3.96}
{"name":"Bailly Lucas","subject":"Philosophy","average_score":3.94}
{"name":"Charles Laetitia","subject":"Philosophy","average_score":16.94}
{"name":"Baron Thierry","subject":"Math","average_score":15.33}
{"name":"Martin Florence","subject":"Physics","average_score":1.08}
{"name":"Bernard Karine","subject":"Literature","average_score":12.0}
{"name":"Andre Emmanuel","subject":"Math","average_score":13.22}
{"name":"Deschamps Alice","subject":"Biology","average_score":3.55}
{"name":"Girard Audrey","subject":"Biology","average_score":1.2}
{"name":"Laurent Marine","subject":"Literature","average_score":15.29}
{"name":"Martin Florence","subject":"Philosophy","average_score":8.44}
{"name":"Philippe Eric","subject":"Chemistry","average_score":13.67}
{"name":"Carpentier Roger","subject":"Biology","average_score":1.0}
{"name":"Lucas Fernand","subject":"Math","average_score":10.96}
{"name":"Benard Romain","subject":"Chemistry","average_score":5.65}
{"name":"Jacquet Fernand","subject":"Literature","average_score":14.64}
{"name":"Perrin Florence","subject":"Chemistry","average_score":17.7}
{"name":"Morin Pauline","subject":"Chemistry","average_score":9.0}
{"name":"Lebrun Christian","subject":"Music","average_score":6.0}
{"name":"Gauthier Gérard","subject":"History","average_score":12.73}
{"name":"Roche Gabriel","subject":"Music","average_score":11.0}
{"name":"Fournier Marcelle","subject":"Math","average_score":20.0}
{"name":"Jacquet Fernand","subject":"History","average_score":8.68}
{"name":"Aubert Adrien","subject":"Math","average_score":12.78}
{"name":"Weber Kevin","subject":"Physics","average_score":1.77}
{"name":"Lebrun Christian","subject":"History","average_score":3.16}
{"name":"Reynaud Denise","subject":"Chemistry","average_score":10.0}
{"name":"Muller Simone","subject":"Chemistry","average_score":15.67}
{"name":"Klein Damien","subject":"History","average_score":13.0}
{"name":"Vasseur Mathilde","subject":"History","average_score":4.04}
{"name":"Guillot Isabelle","subject":"Art","average_score":1.95}
{"name":"Lebrun Christian","subject":"Math","average_score":9.19}
{"name":"Mallet Josette","subject":"Math","average_score":2.48}
{"name":"Chevallier Paulette","subject":"Music","average_score":2.8}
{"name":"Maillard Georgette","subject":"History","average_score":5.97}
{"name":"Simon Dominique","subject":"Literature","average_score":10.83}
{"name":"Blanc Audrey","subject":"Physics","average_score":17.97}
{"name":"Meunier Georges","subject":"Physical education","average_score":7.28}
{"name":"Lebrun Christian","subject":"Biology","average_score":15.47}
{"name":"Bernard Jacqueline","subject":"History","average_score":18.46}
{"name":"David Jacques","subject":"Biology","average_score":16.31}
{"name":"Germain Benjamin","subject":"Chemistry","average_score":6.76}
{"name":"Muller Sandrine","subject":"Art","average_score":5.97}
{"name":"Lefebvre Henri","subject":"Chemistry","average_score":11.95}
{"name":"Schneider Claude","subject":"Chemistry","average_score":7.83}
{"name":"Mercier Claire","subject":"Physics","average_score":1.52}
{"name":"Baron Thierry","subject":"Literature","average_score":5.34}
{"name":"Perrin Roland","subject":"History","average_score":18.54}
{"name":"Perrin Florence","subject":"Physics","average_score":4.19}
{"name":"Blanc Audrey","subject":"Chemistry","average_score":0.7}
{"name":"Andre Emmanuel","subject":"Biology","average_score":18.59}
{"name":"Lebrun Christian","subject":"Literature","average_score":18.72}
{"name":"David Jacques","subject":"Music","average_score":7.51}
{"name":"Bailly Lucas","subject":"Physical education","average_score":6.0}
{"name":"Dufour Corinne","subject":"Physics","average_score":5.32}
{"name":"Pierre Jean","subject":"Physics","average_score":16.81}
{"name":"Hoarau Jeannine","subject":"Biology","average_score":18.41}
{"name":"Jacquet Fernand","subject":"Biology","average_score":17.74}
{"name":"Da Silva Jacques","subject":"History","average_score":6.47}
{"name":"Schneider Stéphanie","subject":"Chemistry","average_score":3.23}
{"name":"Leroy Lucas","subject":"Geography","average_score":8.36}
{"name":"Charpentier Adrien","subject":"History","average_score":13.86}
{"name":"Lefebvre Henri","subject":"Biology","average_score":7.97}
{"name":"Roux Odette","subject":"Physical education","average_score":18.0}
{"name":"Roche Gabriel","subject":"Literature","average_score":1.64}
{"name":"Lecomte Eric","subject":"Geography","average_score":5.0}
{"name":"Gerard Denis","subject":"Physics","average_score":10.08}
{"name":"Joly Christine","subject":"Chemistry","average_score":12.23}
{"name":"Martin Florence","subject":"Chemistry","average_score":5.79}
{"name":"Bourgeois Jean-Claude","subject":"Literature","average_score":17.29}
{"name":"Deschamps Alice","subject":"History","average_score":3.89}
{"name":"Girard Audrey","subject":"Music","average_score":6.0}
{"name":"Bouvier Gérard","subject":"Literature","average_score":14.18}
{"name":"Fournier Eliane","subject":"Philosophy","average_score":18.45}
{"name":"Perrin Roland","subject":"Literature","average_score":8.0}
{"name":"Carpentier Roger","subject":"Geography","average_score":9.54}
{"name":"Bernard Jacqueline","subject":"Math","average_score":3.05}
{"name":"Deschamps Alice","subject":"Chemistry","average_score":7.92}
{"name":"Perret Marine","subject":"Literature","average_score":20.0}
{"name":"Antoine Julien","subject":"Literature","average_score":16.21}
{"name":"Nicolas Léa","subject":"Math","average_score":18.75}
{"name":"Muller Sandrine","subject":"Philosophy","average_score":10.67}
{"name":"Lefevre Brigitte","subject":"Music","average_score":3.05}
{"name":"Menard Marguerite","subject":"History","average_score":7.46}
{"name":"Fournier Marcelle","subject":"Physics","average_score":9.42}
{"name":"Huet Martine","subject":"Literature","average_score":4.87}
{"name":"Muller Dominique","subject":"Physical education","average_score":11.37}
{"name":"Besson Michèle","subject":"Literature","average_score":18.55}
{"name":"Marchand Marcel","subject":"Physical education","average_score":16.31}
{"name":"Colin Christine","subject":"Philosophy","average_score":11.84}
{"name":"Muller Joël","subject":"History","average_score":7.0}
{"name":"Benoit Nadine","subject":"History","average_score":10.11}
{"name":"Chevallier Marie","subject":"Geography","average_score":13.43}
{"name":"Lemoine Christophe","subject":"History","average_score":11.7}
{"name":"Huet Martine","subject":"Philosophy","average_score":16.72}
{"name":"Picard Sophie","subject":"Physical education","average_score":16.19}
{"name":"Germain Benjamin","subject":"Literature","average_score":15.0}
{"name":"Boulanger Brigitte","subject":"Geography","average_score":13.78}
{"name":"Boulanger Brigitte","subject":"Philosophy","average_score":5.92}
{"name":"Hoarau Jeannine","subject":"Literature","average_score":7.68}
{"name":"Hubert Laurence","subject":"Philosophy","average_score":2.03}
{"name":"Fontaine Emile","subject":"Biology","average_score":2.0}
{"name":"Fontaine Emile","subject":"Art","average_score":11.26}
{"name":"Huet Martine","subject":"History","average_score":7.83}
{"name":"David Jacques","subject":"Physical education","average_score":2.81}
{"name":"Marchand Marcel","subject":"Music","average_score":3.02}
{"name":"Poirier Martine","subject":"Physics","average_score":12.88}
{"name":"Simon Mathilde","subject":"Biology","average_score":15.97}
{"name":"Simon Mathilde","subject":"History","average_score":16.54}
{"name":"Antoine Julien","subject":"Philosophy","average_score":10.42}
{"name":"Reynaud Monique","subject":"Math","average_score":17.99}
{"name":"Hubert Alexis","subject":"Math","average_score":4.0}
{"name":"Roger Marcelle","subject":"Biology","average_score":20.0}
{"name":"Marie Mireille","subject":"Philosophy","average_score":16.58}
{"name":"Bernard Karine","subject":"Philosophy","average_score":2.77}
{"name":"Tessier Mireille","subject":"Physics","average_score":3.31}
{"name":"Marchand Marcel","subject":"History","average_score":14.72}
{"name":"Fournier Marcelle","subject":"Geography","average_score":19.0}
{"name":"Fournier Marcelle","subject":"Chemistry","average_score":14.0}
{"name":"Laurent Marine","subject":"History","average_score":2.4}
{"name":"Bouvier Gérard","subject":"Physical education","average_score":10.31}
{"name":"Lecomte Eric","subject":"Philosophy","average_score":15.87}
{"name":"Perrier Mathieu","subject":"Biology","average_score":3.68}
{"name":"Roger Marcelle","subject":"Chemistry","average_score":14.44}
{"name":"Pelletier Véronique","subject":"History","average_score":1.0}
{"name":"Gaillard Stéphanie","subject":"Philosophy","average_score":2.08}
{"name":"Marie Sylvie","subject":"Physics","average_score":8.82}
{"name":"Leroy Lucas","subject":"Math","average_score":13.33}
{"name":"Le Goff Léon","subject":"Math","average_score":18.17}
{"name":"Girard Audrey","subject":"Physical education","average_score":7.11}
{"name":"Poirier Martine","subject":"Philosophy","average_score":19.1}
{"name":"Cousin Florence","subject":"Literature","average_score":7.31}
{"name":"Jacquet Bernard","subject":"Math","average_score":14.3}
{"name":"Perez Claudine","subject":"Philosophy","average_score":11.0}
{"name":"Sanchez Mélanie","subject":"Literature","average_score":5.14}
{"name":"Hubert Laurence","subject":"Math","average_score":7.11}
{"name":"Guillot Isabelle","subject":"Philosophy","average_score":4.74}
{"name":"Vasseur Marguerite","subject":"Biology","average_score":1.45}
{"name":"Olivier Thérèse","subject":"Literature","average_score":0.73}
{"name":"Jean Emilie","subject":"Philosophy","average_score":2.05}
{"name":"Mercier Claire","subject":"Physical education","average_score":9.11}
{"name":"Pelletier Véronique","subject":"Chemistry","average_score":1.81}
{"name":"Paris Adrien","subject":"Physics","average_score":4.0}
{"name":"Bouvier Gérard","subject":"Chemistry","average_score":17.83}
{"name":"Renault Sylvie","subject":"Chemistry","average_score":18.8}
{"name":"Vincent Jacques","subject":"Physical education","average_score":11.97}
{"name":"Meunier Georges","subject":"Physics","average_score":12.68}
{"name":"Jean Emilie","subject":"History","average_score":17.62}
{"name":"Mercier Claire","subject":"Music","average_score":12.0}
{"name":"Girard Audrey","subject":"Math","average_score":14.53}
{"name":"Marchand Marcel","subject":"Math","average_score":4.06}
{"name":"Lopez Guillaume","subject":"History","average_score":15.87}
{"name":"Bernard Karine","subject":"History","average_score":7.11}
{"name":"Antoine Paul","subject":"Literature","average_score":17.69}
{"name":"Hubert Pierre","subject":"Chemistry","average_score":15.93}
{"name":"Mercier Claire","subject":"Geography","average_score":15.84}
{"name":"Mercier Claudine","subject":"History","average_score":7.0}
{"name":"Mercier Claudine","subject":"Chemistry","average_score":18.1}
{"name":"Da Silva Jacques","subject":"Chemistry","average_score":19.0}
{"name":"Paris Marine","subject":"Literature","average_score":10.0}
{"name":"Hubert Laurence","subject":"Physics","average_score":7.61}
{"name":"Martin Florence","subject":"Geography","average_score":2.3}
{"name":"Bernard Karine","subject":"Art","average_score":3.32}
{"name":"Charpentier Adrien","subject":"Literature","average_score":9.27}
{"name":"Charpentier Adrien","subject":"Philosophy","average_score":16.7}
{"name":"Laurent Frédéric","subject":"Physics","average_score":3.75}
{"name":"Lucas Fernand","subject":"Literature","average_score":13.12}
{"name":"Reynaud Denise","subject":"Philosophy","average_score":3.0}
{"name":"Faure Christophe","subject":"History","average_score":17.22}
{"name":"Antoine Sylvie","subject":"Biology","average_score":15.0}
{"name":"Le Goff Léon","subject":"Physics","average_score":8.75}
{"name":"Klein Laetitia","subject":"Philosophy","average_score":8.51}
{"name":"Lemaitre Paulette","subject":"Physical education","average_score":17.25}
{"name":"Perrier Jean-Luc","subject":"Physics","average_score":4.79}
{"name":"Hubert Alexis","subject":"Physics","average_score":14.0}
{"name":"Lambert Eliane","subject":"Physics","average_score":14.71}
{"name":"Carre Jeremy","subject":"Math","average_score":2.77}
{"name":"Barbier Nicole","subject":"Biology","average_score":8.4}
{"name":"Grondin Suzanne","subject":"Physical education","average_score":6.0}
{"name":"Perrier Mathieu","subject":"Philosophy","average_score":16.93}
{"name":"Carlier Florence","subject":"Math","average_score":4.41}
{"name":"Moulin Serge","subject":"Physical education","average_score":2.73}
{"name":"Bouvier Gérard","subject":"History","average_score":10.83}
{"name":"Gillet Hervé","subject":"Literature","average_score":18.2}
{"name":"Guillot Isabelle","subject":"Physical education","average_score":15.9}
{"name":"Perrin Florence","subject":"History","average_score":13.0}
{"name":"Lacroix Denis","subject":"Physical education","average_score":14.13}
{"name":"Renard Patricia","subject":"History","average_score":3.1}
{"name":"Grondin Suzanne","subject":"Philosophy","average_score":18.25}
{"name":"Jean Emilie","subject":"Chemistry","average_score":17.0}
{"name":"Hubert Pierre","subject":"Biology","average_score":10.25}
{"name":"Sanchez Alice","subject":"Physics","average_score":13.35}
{"name":"Barthelemy Dominique","subject":"Geography","average_score":6.0}
{"name":"Joly Emmanuel","subject":"History","average_score":12.53}
{"name":"Schneider Henriette","subject":"History","average_score":9.22}
{"name":"Michaud Bernadette","subject":"History","average_score":7.24}
{"name":"Cousin Florence","subject":"History","average_score":17.47}
{"name":"Marie Mireille","subject":"Literature","average_score":17.77}
{"name":"Vincent Jacques","subject":"Physics","average_score":16.0}
{"name":"Jean Emilie","subject":"Music","average_score":19.0}
{"name":"Louis Florian","subject":"Philosophy","average_score":5.23}
{"name":"Roger Marcelle","subject":"Physical education","average_score":0.72}
{"name":"Faure Christophe","subject":"Art","average_score":2.95}
{"name":"Antoine Sylvie","subject":"Math","average_score":6.39}
{"name":"Vincent Jacques","subject":"Math","average_score":10.94}
{"name":"Perret Marine","subject":"History","average_score":8.27}
{"name":"Thomas Nicole","subject":"Chemistry","average_score":10.63}
{"name":"Roy Romain","subject":"Literature","average_score":14.28}
{"name":"Antoine Paul","subject":"Physics","average_score":13.37}
{"name":"Weber Emile","subject":"Biology","average_score":12.18}
{"name":"Hoarau Jeannine","subject":"Chemistry","average_score":5.0}
{"name":"Royer Serge","subject":"Chemistry","average_score":8.0}
{"name":"Perrin Florence","subject":"Physical education","average_score":5.0}
{"name":"Blanc Audrey","subject":"Physical education","average_score":9.53}
{"name":"Philippe Eric","subject":"Math","average_score":17.31}
{"name":"Besson Michèle","subject":"Math","average_score":9.46}
{"name":"Picard Sophie","subject":"Music","average_score":18.53}
{"name":"Menard Marguerite","subject":"Physics","average_score":16.56}
{"name":"Dufour Corinne","subject":"Geography","average_score":17.63}
{"name":"Reynaud Monique","subject":"Physics","average_score":12.16}
{"name":"Perez Claudine","subject":"Physics","average_score":12.58}
{"name":"Leveque Olivier","subject":"Geography","average_score":13.0}
{"name":"Weber Gérard","subject":"History","average_score":10.62}
{"name":"Rolland Roger","subject":"Geography","average_score":12.31}
{"name":"Menard Marguerite","subject":"Chemistry","average_score":17.74}
{"name":"Barthelemy Dominique","subject":"Math","average_score":11.0}
{"name":"Simon Dominique","subject":"Physics","average_score":12.36}
{"name":"Chauvin Laurent","subject":"Philosophy","average_score":4.63}
{"name":"Weber Emile","subject":"Literature","average_score":2.13}
{"name":"Gerard Denis","subject":"Math","average_score":5.01}
{"name":"Chevallier Marie","subject":"Art","average_score":15.76}
{"name":"Hoarau Paul","subject":"Biology","average_score":10.05}
{"name":"Rolland Roger","subject":"Physical education","average_score":5.0}
{"name":"Bailly Lucas","subject":"History","average_score":5.47}
{"name":"Pelletier Véronique","subject":"Biology","average_score":16.0}
{"name":"Rolland Denis","subject":"Philosophy","average_score":6.34}
{"name":"Fournier Marcelle","subject":"History","average_score":18.77}
{"name":"Legrand Odette","subject":"History","average_score":18.0}
{"name":"Klein Damien","subject":"Math","average_score":17.0}
{"name":"Lambert Eliane","subject":"Geography","average_score":2.13}
{"name":"Muller Dominique","subject":"Music","average_score":7.0}
{"name":"Paris Adrien","subject":"Philosophy","average_score":3.22}
{"name":"Hubert Quentin","subject":"History","average_score":20.0}
{"name":"Marty Fernand","subject":"History","average_score":1.93}
{"name":"Blanc Audrey","subject":"Biology","average_score":14.38}
{"name":"Philippe Eric","subject":"Physics","average_score":5.31}
{"name":"Lacroix Denis","subject":"Geography","average_score":10.96}
{"name":"Grondin Gabriel","subject":"Physics","average_score":5.05}
{"name":"Jean Emilie","subject":"Physical education","average_score":8.69}
{"name":"Mallet Josette","subject":"Music","average_score":2.8}
{"name":"Paris Adrien","subject":"Music","average_score":16.69}
{"name":"Humbert Thomas","subject":"Geography","average_score":5.54}
{"name":"Fournier Eliane","subject":"Physics","average_score":10.78}
{"name":"Vasseur Marguerite","subject":"Physics","average_score":12.0}
{"name":"Bailly Lucas","subject":"Biology","average_score":2.0}
{"name":"Dufour Corinne","subject":"Biology","average_score":1.6}
{"name":"Simon Mathilde","subject":"Geography","average_score":1.42}
{"name":"Bouvier Gérard","subject":"Math","average_score":10.07}
{"name":"Fontaine Emile","subject":"Math","average_score":1.0}
{"name":"Blanc Audrey","subject":"Geography","average_score":14.07}
{"name":"Mercier Claudine","subject":"Biology","average_score":12.34}
{"name":"Roy Romain","subject":"Geography","average_score":6.81}
{"name":"Louis Florian","subject":"History","average_score":15.42}
{"name":"Schneider Claude","subject":"Music","average_score":3.0}
{"name":"Laurent Frédéric","subject":"Biology","average_score":17.37}
{"name":"Lopez Guillaume","subject":"Physics","average_score":4.0}
{"name":"Klein Damien","subject":"Chemistry","average_score":1.29}
{"name":"Lambert Eliane","subject":"Math","average_score":18.25}
{"name":"Antoine Sylvie","subject":"Literature","average_score":16.59}
{"name":"Lebrun Christian","subject":"Philosophy","average_score":19.25}
{"name":"Gauthier Gérard","subject":"Literature","average_score":10.38}
{"name":"Mallet Josette","subject":"Literature","average_score":11.73}
{"name":"Hubert Quentin","subject":"Geography","average_score":18.9}
{"name":"Dufour Corinne","subject":"Math","average_score":9.0}
{"name":"Hubert Alexis","subject":"Chemistry","average_score":13.71}
{"name":"Nicolas Léa","subject":"Physics","average_score":14.16}
{"name":"Joly Christine","subject":"History","average_score":12.0}
{"name":"Marie Mireille","subject":"Math","average_score":18.77}
{"name":"Olivier Thérèse","subject":"Chemistry","average_score":3.21}
{"name":"Grondin Suzanne","subject":"Literature","average_score":2.8}
{"name":"Girard Audrey","subject":"Literature","average_score":16.15}
{"name":"Charles Florian","subject":"Physics","average_score":5.56}
{"name":"Chauvin Laurent","subject":"Biology","average_score":12.0}
{"name":"Legrand Odette","subject":"Literature","average_score":16.94}
{"name":"Lemoine Christophe","subject":"Literature","average_score":9.08}
{"name":"Girard Juliette","subject":"Philosophy","average_score":17.72}
{"name":"Vincent Jacques","subject":"Literature","average_score":17.94}
{"name":"Rolland Roger","subject":"Chemistry","average_score":19.34}
{"name":"Gauthier Gérard","subject":"Math","average_score":19.48}
{"name":"Perrier Mathieu","subject":"Geography","average_score":10.15}
{"name":"Muller Simone","subject":"Physical education","average_score":7.0}
{"name":"Royer Serge","subject":"History","average_score":12.0}
{"name":"Bourgeois Jean-Claude","subject":"Physical education","average_score":17.51}
{"name":"Bailly Lucas","subject":"Literature","average_score":0.81}
{"name":"Klein Damien","subject":"Physics","average_score":15.72}
{"name":"Schneider Stéphanie","subject":"Geography","average_score":18.0}
{"name":"Weber Gérard","subject":"Physics","average_score":7.54}
{"name":"Gillet Hervé","subject":"Physics","average_score":4.01}
{"name":"Louis Florian","subject":"Literature","average_score":15.59}
{"name":"Laurent Frédéric","subject":"Literature","average_score":12.47}
{"name":"Picard Sophie","subject":"History","average_score":6.26}
{"name":"Humbert Thomas","subject":"Biology","average_score":0.94}
{"name":"Nicolas Léa","subject":"Literature","average_score":2.06}
{"name":"Herve Charlotte","subject":"Chemistry","average_score":17.75}
{"name":"Klein Laetitia","subject":"Geography","average_score":17.91}
{"name":"Rolland Roger","subject":"History","average_score":6.83}
{"name":"Bailly Lucas","subject":"Music","average_score":5.67}
{"name":"Poirier Martine","subject":"Geography","average_score":17.0}
{"name":"Simon Dominique","subject":"Biology","average_score":10.63}
{"name":"Pierre Jean","subject":"Chemistry","average_score":1.52}
{"name":"Jacquet Fernand","subject":"Philosophy","average_score":8.0}
{"name":"Lejeune Jean","subject":"History","average_score":5.66}
{"name":"Lejeune Jean","subject":"Chemistry","average_score":16.22}
{"name":"Lemoine Christophe","subject":"Geography","average_score":19.0}
{"name":"Garnier Chloé","subject":"Philosophy","average_score":6.63}
{"name":"Lefebvre Henri","subject":"Philosophy","average_score":5.41}
{"name":"Besson Michèle","subject":"Physics","average_score":18.09}
{"name":"Hubert Pierre","subject":"Literature","average_score":2.82}
{"name":"Chevallier Victor","subject":"Geography","average_score":18.72}
{"name":"Simon Dominique","subject":"Philosophy","average_score":11.26}
{"name":"Chevallier Marie","subject":"Literature","average_score":11.51}
{"name":"Lejeune Jean","subject":"Biology","average_score":3.83}
{"name":"Antoine Paul","subject":"Philosophy","average_score":6.88}
{"name":"Lacroix Denis","subject":"Literature","average_score":2.0}
{"name":"Michaud Bernadette","subject":"Physics","average_score":4.0}
{"name":"Perrier Jean-Luc","subject":"Biology","average_score":17.97}
{"name":"Jacquet Bernard","subject":"Chemistry","average_score":4.11}
{"name":"Charles Laetitia","subject":"Physics","average_score":10.27}
{"name":"Moulin Serge","subject":"Literature","average_score":14.73}
{"name":"Muller Dominique","subject":"Math","average_score":6.67}
{"name":"Gauthier Gérard","subject":"Philosophy","average_score":13.86}
{"name":"Blanchard Claire","subject":"Chemistry","average_score":12.31}
{"name":"Hubert Pierre","subject":"History","average_score":12.0}
{"name":"Marie Sylvie","subject":"Math","average_score":13.72}
{"name":"Fontaine Emile","subject":"Physics","average_score":8.24}
{"name":"Gillet Hervé","subject":"Philosophy","average_score":18.5}
{"name":"Roux Odette","subject":"Math","average_score":6.61}
{"name":"Carpentier Roger","subject":"Literature","average_score":14.72}
{"name":"Perret Marine","subject":"Physics","average_score":16.09}
{"name":"Bailly Lucas","subject":"Chemistry","average_score":4.94}
{"name":"Hubert Quentin","subject":"Chemistry","average_score":11.29}
{"name":"Lecomte Eric","subject":"Literature","average_score":10.26}
{"name":"Thomas Nicole","subject":"History","average_score":17.71}
{"name":"Joly Emmanuel","subject":"Chemistry","average_score":15.42}
{"name":"Marie Sylvie","subject":"Literature","average_score":9.0}
{"name":"Benoit Nadine","subject":"Physics","average_score":1.13}
{"name":"Lemoine Christophe","subject":"Physics","average_score":5.83}
{"name":"Garnier Chloé","subject":"Biology","average_score":15.72}
{"name":"Bourgeois Jean-Claude","subject":"Math","average_score":10.0}
{"name":"Meunier Georges","subject":"History","average_score":12.0}
{"name":"Benard Romain","subject":"History","average_score":9.52}
{"name":"Humbert Thomas","subject":"Literature","average_score":8.0}
{"name":"Roger Marcelle","subject":"History","average_score":8.36}
{"name":"Chevallier Marie","subject":"Physics","average_score":6.18}
{"name":"Perrin Roland","subject":"Physical education","average_score":12.61}
{"name":"Cousin Florence","subject":"Geography","average_score":1.0}
{"name":"Muller Sandrine","subject":"Physical education","average_score":17.18}
{"name":"Barbier Nicole","subject":"History","average_score":10.88}
{"name":"Morin Pauline","subject":"Geography","average_score":3.99}
{"name":"Gauthier Gérard","subject":"Physical education","average_score":14.87}
{"name":"Charles Laetitia","subject":"Literature","average_score":8.29}
{"name":"Baron Thierry","subject":"Philosophy","average_score":13.1}
{"name":"Muller Simone","subject":"Philosophy","average_score":12.0}
{"name":"Gerard Denis","subject":"Biology","average_score":5.38}
{"name":"Paris Marine","subject":"Chemistry","average_score":8.22}
{"name":"Lemoine Christophe","subject":"Philosophy","average_score":19.44}
{"name":"Lefebvre Henri","subject":"Physics","average_score":6.0}
{"name":"Lacroix Denis","subject":"Physics","average_score":12.96}
{"name":"Lebrun Christian","subject":"Chemistry","average_score":12.81}
{"name":"Cousin Florence","subject":"Math","average_score":12.5}
{"name":"Rolland Denis","subject":"Literature","average_score":10.0}
{"name":"Muller Joël","subject":"Literature","average_score":4.53}
{"name":"Moulin Serge","subject":"Math","average_score":9.84}
{"name":"Girard Juliette","subject":"Chemistry","average_score":1.2}
{"name":"Morin Pauline","subject":"History","average_score":16.0}
{"name":"Huet Martine","subject":"Physical education","average_score":20.0}
{"name":"Jean Emilie","subject":"Literature","average_score":20.0}
{"name":"Charles Florian","subject":"Geography","average_score":17.87}
{"name":"Dufour Suzanne","subject":"Physics","average_score":1.85}
{"name":"Simon Dominique","subject":"History","average_score":3.9}
{"name":"Roger Marcelle","subject":"Literature","average_score":3.23}
{"name":"Gerard Denis","subject":"Literature","average_score":10.0}
{"name":"Sanchez Mélanie","subject":"Physical education","average_score":4.0}
{"name":"Lejeune Jean","subject":"Physics","average_score":1.75}
{"name":"Hubert Laurence","subject":"History","average_score":15.95}
{"name":"Roy Romain","subject":"Chemistry","average_score":10.0}
{"name":"Charpentier Adrien","subject":"Physical education","average_score":13.0}
{"name":"David Jacques","subject":"Physics","average_score":3.73}
{"name":"Mercier Claire","subject":"Philosophy","average_score":9.59}
{"name":"Menard Marguerite","subject":"Physical education","average_score":16.65}
{"name":"Mercier Claudine","subject":"Geography","average_score":16.17}
{"name":"Germain Benjamin","subject":"Geography","average_score":14.03}
{"name":"Roux Odette","subject":"Biology","average_score":0.73}
{"name":"Carpentier Roger","subject":"History","average_score":4.71}
{"name":"Rey Kevin","subject":"Geography","average_score":13.74}
{"name":"Chevallier Paulette","subject":"History","average_score":14.95}
{"name":"Girard Audrey","subject":"Geography","average_score":5.14}
{"name":"Hubert Quentin","subject":"Biology","average_score":1.38}
{"name":"Weber Emile","subject":"Philosophy","average_score":14.71}
{"name":"Schneider Stéphanie","subject":"Art","average_score":18.33}
{"name":"Gillet Hervé","subject":"Physical education","average_score":7.81}
{"name":"Vincent Jacques","subject":"Biology","average_score":8.36}
{"name":"Carpentier Roger","subject":"Philosophy","average_score":5.0}
{"name":"Marie Mireille","subject":"Art","average_score":3.86}
{"name":"Roy Romain","subject":"Biology","average_score":1.88}
{"name":"Garnier Chloé","subject":"Geography","average_score":14.24}
{"name":"Hoarau Paul","subject":"Art","average_score":15.84}
{"name":"Faure Christophe","subject":"Physics","average_score":15.23}
{"name":"Antoine Sylvie","subject":"History","average_score":4.68}
{"name":"Dufour Suzanne","subject":"Physical education","average_score":11.66}
{"name":"Carre Jeremy","subject":"Philosophy","average_score":7.16}
{"name":"Lebrun Christian","subject":"Geography","average_score":4.0}
{"name":"Besson Michèle","subject":"History","average_score":0.5}
{"name":"Poirier Martine","subject":"Chemistry","average_score":4.88}
{"name":"Reynaud Denise","subject":"Literature","average_score":5.0}
{"name":"Hoarau Jeannine","subject":"Geography","average_score":8.0}
{"name":"Marie Mireille","subject":"Chemistry","average_score":7.1}
{"name":"Girard Juliette","subject":"Physical education","average_score":17.79}
{"name":"Vincent Jacques","subject":"Philosophy","average_score":7.69}
{"name":"Henry Odette","subject":"Physics","average_score":9.0}
{"name":"Poirier Martine","subject":"Literature","average_score":3.28}
{"name":"Poirier Martine","subject":"History","average_score":14.43}
{"name":"Lecomte Eric","subject":"Biology","average_score":5.97}
{"name":"Perrier Mathieu","subject":"Literature","average_score":16.02}
{"name":"Humbert Thomas","subject":"Philosophy","average_score":14.15}
{"name":"Marty Fernand","subject":"Art","average_score":6.14}
{"name":"Lemaitre Paulette","subject":"Literature","average_score":14.0}
{"name":"Bernard Jacqueline","subject":"Geography","average_score":16.73}
{"name":"Rey Kevin","subject":"Literature","average_score":14.15}
{"name":"Colin Christine","subject":"Geography","average_score":3.86}
{"name":"Thomas Nicole","subject":"Physics","average_score":6.95}
{"name":"Schneider Stéphanie","subject":"Math","average_score":7.0}
{"name":"Chevallier Marie","subject":"History","average_score":4.91}
{"name":"Royer Valérie","subject":"Physics","average_score":15.43}
{"name":"Le Goff Léon","subject":"History","average_score":14.82}
{"name":"Roux Odette","subject":"Literature","average_score":16.0}
{"name":"Chevallier Paulette","subject":"Geography","average_score":18.93}
{"name":"Chauvin Laurent","subject":"Geography","average_score":17.69}
{"name":"Hubert Alexis","subject":"Physical education","average_score":17.63}
{"name":"Joly Emmanuel","subject":"Philosophy","average_score":1.9}
{"name":"Klein Damien","subject":"Philosophy","average_score":13.54}
{"name":"Muller Sandrine","subject":"Biology","average_score":18.32}
{"name":"Renault Sylvie","subject":"Literature","average_score":4.1}
{"name":"Lemaitre Paulette","subject":"History","average_score":16.99}
{"name":"Marchand Marcel","subject":"Physics","average_score":19.0}
{"name":"Baron Thierry","subject":"Biology","average_score":3.8}
{"name":"Richard Clément","subject":"Biology","average_score":8.3}
{"name":"Schneider Stéphanie","subject":"Physical education","average_score":2.0}
{"name":"Perrin Roland","subject":"Art","average_score":9.56}
{"name":"Perrin Roland","subject":"Physics","average_score":8.24}
{"name":"Antoine Paul","subject":"Math","average_score":11.98}
{"name":"Klein Laetitia","subject":"Physical education","average_score":5.65}
{"name":"Muller Dominique","subject":"Chemistry","average_score":16.0}
{"name":"Perrier Jean-Luc","subject":"Literature","average_score":18.7}
{"name":"Paris Adrien","subject":"Math","average_score":8.0}
{"name":"Baron Thierry","subject":"History","average_score":10.06}
{"name":"Muller Dominique","subject":"Biology","average_score":1.45}
{"name":"Mercier Claire","subject":"Literature","average_score":4.61}
{"name":"Girard Audrey","subject":"Philosophy","average_score":6.4}
{"name":"Perrier Mathieu","subject":"Math","average_score":4.41}
{"name":"Legrand Odette","subject":"Physical education","average_score":5.0}
{"name":"Roy Romain","subject":"Art","average_score":12.57}
{"name":"Hoarau Paul","subject":"Physics","average_score":2.46}
{"name":"Blanc Audrey","subject":"Literature","average_score":2.92}
{"name":"Lefebvre Henri","subject":"Geography","average_score":5.08}
{"name":"Carre Jeremy","subject":"History","average_score":5.81}
{"name":"Henry Odette","subject":"Literature","average_score":13.74}
{"name":"Michel Annie","subject":"Geography","average_score":6.4}
{"name":"Rey Kevin","subject":"Biology","average_score":1.34}
{"name":"Hubert Pierre","subject":"Music","average_score":8.52}
{"name":"Menard Marguerite","subject":"Math","average_score":11.09}
{"name":"Cousin Florence","subject":"Biology","average_score":18.24}
{"name":"Gillet Mathieu","subject":"Philosophy","average_score":7.29}
{"name":"Lemoine Christophe","subject":"Math","average_score":3.0}
{"name":"Schneider Henriette","subject":"Philosophy","average_score":16.89}
{"name":"Tessier Mireille","subject":"Geography","average_score":15.27}
{"name":"Perrier Jean-Luc","subject":"Music","average_score":12.0}
{"name":"Roche Gabriel","subject":"Philosophy","average_score":18.0}
{"name":"Marty Fernand","subject":"Biology","average_score":4.3}
{"name":"Garnier Chloé","subject":"Math","average_score":14.68}
{"name":"Hoarau Paul","subject":"Philosophy","average_score":6.56}
{"name":"Carre Jeremy","subject":"Biology","average_score":1.78}
{"name":"Barbier Nicole","subject":"Chemistry","average_score":0.56}
{"name":"Meunier Georges","subject":"Biology","average_score":4.73}
{"name":"Lefevre Brigitte","subject":"Geography","average_score":13.93}
{"name":"Germain Benjamin","subject":"Philosophy","average_score":13.36}
{"name":"Antoine Julien","subject":"Geography","average_score":15.7}
{"name":"Richard Clément","subject":"Physical education","average_score":11.13}
{"name":"Sanchez Mélanie","subject":"Biology","average_score":6.54}
{"name":"Lemoine Christophe","subject":"Biology","average_score":6.91}
{"name":"Perrin Roland","subject":"Philosophy","average_score":11.25}
{"name":"Garnier Chloé","subject":"Art","average_score":0.91}
{"name":"Hoarau Paul","subject":"Physical education","average_score":14.23}
{"name":"Carre Jeremy","subject":"Physics","average_score":9.47}
{"name":"Blanchard Claire","subject":"History","average_score":18.81}
{"name":"Chevallier Victor","subject":"Physical education","average_score":8.11}
{"name":"Perret Marine","subject":"Biology","average_score":12.0}
{"name":"Maillard Georgette","subject":"Biology","average_score":13.34}
{"name":"Gillet Mathieu","subject":"History","average_score":13.5}
{"name":"Fournier Eliane","subject":"Physical education","average_score":13.2}
{"name":"Faure Christophe","subject":"Philosophy","average_score":1.08}
{"name":"Faure Christophe","subject":"Physical education","average_score":12.09}
{"name":"Meunier Georges","subject":"Math","average_score":8.58}
{"name":"Meunier Georges","subject":"Philosophy","average_score":1.13}
{"name":"Hubert Pierre","subject":"Geography","average_score":12.5}
{"name":"Charles Florian","subject":"Literature","average_score":11.84}
{"name":"Gillet Hervé","subject":"Geography","average_score":11.18}
{"name":"Lebrun Christian","subject":"Physics","average_score":3.14}
{"name":"Boulanger Brigitte","subject":"Math","average_score":7.0}
{"name":"Carlier Florence","subject":"Chemistry","average_score":6.39}
{"name":"Schneider Stéphanie","subject":"Physics","average_score":12.87}
{"name":"Faure Christophe","subject":"Geography","average_score":7.61}
{"name":"Lefebvre Henri","subject":"Literature","average_score":3.3}
{"name":"Renard Patricia","subject":"Physical education","average_score":1.4}
{"name":"Marty Fernand","subject":"Math","average_score":1.84}
{"name":"Gillet Hervé","subject":"Math","average_score":9.14}
{"name":"Perrin Florence","subject":"Philosophy","average_score":0.59}
{"name":"Olivier Thérèse","subject":"History","average_score":9.05}
{"name":"Fournier Marcelle","subject":"Biology","average_score":12.14}
{"name":"Sanchez Mélanie","subject":"Art","average_score":1.48}
{"name":"Royer Valérie","subject":"Literature","average_score":19.47}
{"name":"Bernard Karine","subject":"Physics","average_score":18.05}
{"name":"Schneider Henriette","subject":"Chemistry","average_score":7.12}
{"name":"Blanchard Claire","subject":"Music","average_score":4.3}
{"name":"Roche Gabriel","subject":"History","average_score":17.78}
{"name":"Perez Claudine","subject":"History","average_score":9.9}
{"name":"Leroy Lucas","subject":"Literature","average_score":13.81}
{"name":"Aubert Adrien","subject":"Chemistry","average_score":0.92}
{"name":"Bailly Lucas","subject":"Physics","average_score":11.48}
{"name":"Colin Christine","subject":"Physics","average_score":8.0}
{"name":"Reynaud Monique","subject":"Philosophy","average_score":15.63}
{"name":"Roy Romain","subject":"Physics","average_score":7.99}
{"name":"Gillet Hervé","subject":"Art","average_score":17.95}
{"name":"Antoine Sylvie","subject":"Chemistry","average_score":8.71}
{"name":"Schneider Henriette","subject":"Math","average_score":14.2}
{"name":"Dufour Suzanne","subject":"Geography","average_score":12.17}
{"name":"Olivier Thérèse","subject":"Math","average_score":8.05}
{"name":"Chevallier Paulette","subject":"Chemistry","average_score":11.22}
{"name":"Maillard Georgette","subject":"Physics","average_score":6.37}
{"name":"Gerard Suzanne","subject":"History","average_score":5.54}
{"name":"Laurent Marine","subject":"Physics","average_score":7.52}
{"name":"Da Silva Jacques","subject":"Physical education","average_score":17.92}
{"name":"Lacroix Denis","subject":"Biology","average_score":7.82}
{"name":"Renard Patricia","subject":"Physics","average_score":8.0}
{"name":"Laurent Frédéric","subject":"Math","average_score":10.67}
{"name":"Menard Marguerite","subject":"Literature","average_score":1.88}
{"name":"Dufour Corinne","subject":"Chemistry","average_score":9.0}
{"name":"Lecomte Eric","subject":"Chemistry","average_score":13.0}
{"name":"Lopez Guillaume","subject":"Chemistry","average_score":3.23}
{"name":"Gerard Suzanne","subject":"Biology","average_score":15.09}
{"name":"Gerard Suzanne","subject":"Chemistry","average_score":9.07}
{"name":"Laurent Marine","subject":"Philosophy","average_score":12.05}
{"name":"Schneider Henriette","subject":"Geography","average_score":14.39}
{"name":"Tessier Mireille","subject":"History","average_score":17.67}
{"name":"Barbier Nicole","subject":"Physics","average_score":0.5}
{"name":"Michaud Bernadette","subject":"Philosophy","average_score":14.0}
{"name":"Bourgeois Jean-Claude","subject":"Physics","average_score":14.05}
{"name":"Rey Kevin","subject":"History","average_score":12.0}
{"name":"Deschamps Alice","subject":"Physics","average_score":14.7}
{"name":"Weber Emile","subject":"Physics","average_score":19.08}
{"name":"Da Silva Jacques","subject":"Literature","average_score":13.74}
{"name":"Joly Christine","subject":"Biology","average_score":15.18}
{"name":"Delaunay Jerome","subject":"Philosophy","average_score":1.0}
{"name":"Leveque Olivier","subject":"Literature","average_score":13.5}
{"name":"Lemoine Christophe","subject":"Art","average_score":8.37}
{"name":"Muller Dominique","subject":"Physics","average_score":5.03}
{"name":"Chevallier Paulette","subject":"Physics","average_score":13.51}
{"name":"Laurent Marine","subject":"Biology","average_score":17.86}
{"name":"Herve Charlotte","subject":"Math","average_score":4.92}
{"name":"Herve Charlotte","subject":"Physics","average_score":7.73}
{"name":"Gillet Mathieu","subject":"Physical education","average_score":4.71}
{"name":"Leroy Lucas","subject":"Chemistry","average_score":13.61}
{"name":"Klein Laetitia","subject":"Chemistry","average_score":19.0}
{"name":"Henry Odette","subject":"Physical education","average_score":11.75}
{"name":"Perrier Jean-Luc","subject":"Math","average_score":2.68}
{"name":"Perret Marine","subject":"Music","average_score":4.15}
{"name":"Gaillard Stéphanie","subject":"Math","average_score":2.57}
{"name":"Thomas Nicole","subject":"Philosophy","average_score":3.5}
{"name":"Weber Emile","subject":"Geography","average_score":9.82}
{"name":"Weber Emile","subject":"Math","average_score":6.0}
{"name":"Lopez Guillaume","subject":"Geography","average_score":14.9}
{"name":"Moulin Serge","subject":"Philosophy","average_score":16.67}
{"name":"Gerard Denis","subject":"Philosophy","average_score":4.89}
{"name":"Muller Sandrine","subject":"History","average_score":18.61}
{"name":"Guillot Isabelle","subject":"Chemistry","average_score":19.13}
{"name":"Morin Pauline","subject":"Physics","average_score":12.92}
{"name":"Gauthier Gérard","subject":"Biology","average_score":13.61}
{"name":"David Jacques","subject":"Geography","average_score":16.31}
{"name":"Chevallier Victor","subject":"Biology","average_score":6.0}
{"name":"Gaillard Stéphanie","subject":"History","average_score":0.5}
{"name":"Joly Christine","subject":"Physics","average_score":4.49}
{"name":"Chevallier Marie","subject":"Philosophy","average_score":15.49}
{"name":"Philippe Eric","subject":"Literature","average_score":17.22}
{"name":"Lacroix Denis","subject":"Math","average_score":1.6}
{"name":"Rolland Roger","subject":"Music","average_score":20.0}
{"name":"Benard Romain","subject":"Math","average_score":1.38}
{"name":"Royer Serge","subject":"Math","average_score":17.3}
{"name":"Fontaine Emile","subject":"Philosophy","average_score":15.0}
{"name":"Roy Romain","subject":"History","average_score":9.63}
{"name":"Besson Michèle","subject":"Music","average_score":2.9}
{"name":"Picard Sophie","subject":"Biology","average_score":11.14}
{"name":"Rolland Denis","subject":"Chemistry","average_score":13.6}
{"name":"Fournier Marcelle","subject":"Literature","average_score":8.0}
{"name":"Weber Marine","subject":"Physics","average_score":3.14}
{"name":"Lejeune Jean","subject":"Literature","average_score":8.76}
{"name":"Martin Florence","subject":"Biology","average_score":2.3}
{"name":"Lambert Eliane","subject":"History","average_score":4.79}
{"name":"Lefebvre Henri","subject":"Math","average_score":15.36}
{"name":"Olivier Thérèse","subject":"Physical education","average_score":1.16}
{"name":"Rolland Roger","subject":"Biology","average_score":18.0}
{"name":"Sanchez Alice","subject":"Biology","average_score":11.49}
{"name":"Menard Marguerite","subject":"Philosophy","average_score":6.88}
{"name":"Marchand Marcel","subject":"Philosophy","average_score":16.88}
{"name":"Marchand Marcel","subject":"Chemistry","average_score":5.48}
{"name":"Paris Adrien","subject":"History","average_score":5.42}
{"name":"Pierre Jean","subject":"Literature","average_score":8.75}
{"name":"Klein Damien","subject":"Literature","average_score":4.57}
{"name":"Perrin Roland","subject":"Chemistry","average_score":3.25}
{"name":"Lambert Eliane","subject":"Philosophy","average_score":2.77}
{"name":"Roux Odette","subject":"History","average_score":16.16}
{"name":"Laurent Frédéric","subject":"Physical education","average_score":17.37}
{"name":"Chevallier Victor","subject":"Philosophy","average_score":11.0}
{"name":"Chauvin Laurent","subject":"Physics","average_score":7.97}
{"name":"Humbert Thomas","subject":"History","average_score":18.0}
{"name":"Joly Emmanuel","subject":"Literature","average_score":10.0}
{"name":"Sanchez Mélanie","subject":"Geography","average_score":4.0}
{"name":"Renault Sylvie","subject":"Physical education","average_score":1.0}
{"name":"Aubert Adrien","subject":"Biology","average_score":14.19}
{"name":"Louis Florian","subject":"Music","average_score":13.15}
{"name":"Rey Kevin","subject":"Physical education","average_score":6.06}
{"name":"Charles Florian","subject":"Chemistry","average_score":12.56}
{"name":"Weber Emile","subject":"History","average_score":10.65}
{"name":"Reynaud Monique","subject":"Biology","average_score":13.18}
{"name":"Richard Clément","subject":"Literature","average_score":5.0}
{"name":"Marie Sylvie","subject":"Physical education","average_score":9.08}
{"name":"Girard Juliette","subject":"History","average_score":2.57}
{"name":"Charpentier Adrien","subject":"Math","average_score":7.09}
{"name":"Andre Emmanuel","subject":"History","average_score":2.8}
{"name":"Meunier Georges","subject":"Chemistry","average_score":3.98}
{"name":"Deschamps Alice","subject":"Physical education","average_score":4.64}
{"name":"Dufour Corinne","subject":"Literature","average_score":14.61}
{"name":"Barthelemy Dominique","subject":"History","average_score":1.72}
{"name":"Thomas Nicole","subject":"Literature","average_score":14.0}
{"name":"Roche Gabriel","subject":"Biology","average_score":2.18}
{"name":"Carlier Florence","subject":"History","average_score":7.84}
{"name":"Antoine Sylvie","subject":"Physical education","average_score":6.0}
{"name":"Philippe Eric","subject":"History","average_score":18.77}
{"name":"Tessier Mireille","subject":"Biology","average_score":18.81}
{"name":"Vasseur Marguerite","subject":"Chemistry","average_score":12.81}
{"name":"Blanchard Claire","subject":"Math","average_score":16.0}
{"name":"Leveque Olivier","subject":"Art","average_score":1.54}
{"name":"Michaud Bernadette","subject":"Literature","average_score":11.33}
{"name":"Grondin Gabriel","subject":"Chemistry","average_score":9.0}
{"name":"Rolland Roger","subject":"Literature","average_score":16.96}
{"name":"Rey Kevin","subject":"Chemistry","average_score":3.0}
{"name":"Chevallier Marie","subject":"Math","average_score":5.4}
{"name":"Olivier Thérèse","subject":"Geography","average_score":4.04}
{"name":"Aubert Adrien","subject":"History","average_score":7.74}
{"name":"Besson Michèle","subject":"Chemistry","average_score":15.68}
{"name":"Jacquet Bernard","subject":"Physics","average_score":18.75}
{"name":"Barthelemy Dominique","subject":"Philosophy","average_score":14.43}
{"name":"Antoine Julien","subject":"Biology","average_score":6.33}
{"name":"Weber Marine","subject":"Physical education","average_score":18.22}
{"name":"Legrand Odette","subject":"Math","average_score":18.81}
{"name":"Delaunay Jerome","subject":"Physical education","average_score":1.0}
{"name":"Sanchez Mélanie","subject":"History","average_score":7.86}
{"name":"Girard Audrey","subject":"Chemistry","average_score":15.21}
{"name":"Royer Serge","subject":"Philosophy","average_score":8.0}
{"name":"Chevallier Marie","subject":"Chemistry","average_score":11.02}
{"name":"Michaud Bernadette","subject":"Chemistry","average_score":14.0}
{"name":"Grondin Suzanne","subject":"Biology","average_score":1.0}
{"name":"Mallet Josette","subject":"Physics","average_score":16.27}
{"name":"Moulin Serge","subject":"History","average_score":16.96}
{"name":"Louis Anne","subject":"Math","average_score":18.48}
{"name":"Perrin Roland","subject":"Geography","average_score":0.86}
{"name":"Schneider Henriette","subject":"Physics","average_score":14.28}
{"name":"Michel Annie","subject":"Chemistry","average_score":13.66}
{"name":"Weber Kevin","subject":"Chemistry","average_score":5.33}
{"name":"Muller Dominique","subject":"History","average_score":11.72}
{"name":"Barthelemy Dominique","subject":"Physics","average_score":8.13}
{"name":"Germain Benjamin","subject":"History","average_score":16.0}
{"name":"Carlier Florence","subject":"Literature","average_score":5.51}
{"name":"Perez Claudine","subject":"Physical education","average_score":16.21}
{"name":"Fontaine Emile","subject":"Physical education","average_score":10.75}
{"name":"Michaud Bernadette","subject":"Biology","average_score":2.0}
{"name":"Vasseur Marguerite","subject":"Literature","average_score":12.0}
{"name":"Olivier Thérèse","subject":"Physics","average_score":7.94}
{"name":"Besson Michèle","subject":"Geography","average_score":7.0}
{"name":"Benoit Nadine","subject":"Biology","average_score":9.41}
{"name":"Leroy Lucas","subject":"Physical education","average_score":1.0}
{"name":"Antoine Sylvie","subject":"Geography","average_score":12.0}
{"name":"Charpentier Adrien","subject":"Chemistry","average_score":15.25}
{"name":"Michaud Bernadette","subject":"Math","average_score":3.0}
{"name":"Tessier Mireille","subject":"Philosophy","average_score":19.0}
{"name":"Vasseur Marguerite","subject":"Philosophy","average_score":3.1}
{"name":"Maillard Georgette","subject":"Chemistry","average_score":14.11}
{"name":"Gerard Suzanne","subject":"Physics","average_score":6.84}
{"name":"Da Silva Jacques","subject":"Philosophy","average_score":17.69}
{"name":"Royer Valérie","subject":"Geography","average_score":2.55}
{"name":"Antoine Sylvie","subject":"Physics","average_score":2.47}
{"name":"Lefebvre Henri","subject":"History","average_score":1.44}
{"name":"Le Goff Léon","subject":"Biology","average_score":1.78}
{"name":"Renard Patricia","subject":"Biology","average_score":14.0}
{"name":"Huet Martine","subject":"Math","average_score":10.87}
{"name":"Paris Adrien","subject":"Literature","average_score":7.08}
{"name":"Gerard Denis","subject":"Physical education","average_score":13.86}
{"name":"Delaunay Jerome","subject":"Biology","average_score":14.81}
{"name":"Leroy Lucas","subject":"Art","average_score":8.79}
{"name":"Michel Annie","subject":"Literature","average_score":15.0}
{"name":"Perret Marine","subject":"Chemistry","average_score":3.0}
{"name":"Gaillard Stéphanie","subject":"Geography","average_score":7.48}
{"name":"Benard Romain","subject":"Biology","average_score":18.6}
{"name":"Antoine Julien","subject":"History","average_score":1.42}
{"name":"Gauthier Gérard","subject":"Geography","average_score":9.7}
